Link,Num_Units,Service_Time,Service_Dist
27007,18,2617.9750648883164,2266.2610520003363
27825,7,1211.7190209367195,1687.878995999461
16048,2,478.4412533901154,794.1970500007737
28116,3,698.4290005960686,1464.6557930000126
28349,5,990.573720394415,1814.307468000101
19064,1,571.338148391008,612.4596450000536
17464,4,771.7179863088015,1151.4393360000104
27553,2,889.0263749989521,3547.3382320001256
26497,3,636.9206514173227,1052.2171529994812
26285,1,539.6058343666589,399.68149999994785
28347,1,801.0293565068489,2152.6331460003275
13701,2,425.65657367562665,440.25418200017884
26501,2,518.3396169060013,1061.7318970004562
26736,1,555.878386646864,508.79561899998225
26216,1,788.7381846138306,2070.2158110002056
21258,1,639.6077614684399,1070.2353250007145
28055,6,1121.3338750213459,1886.45870599919
28070,7,1126.6644273315158,1117.5531560003292
19036,1,558.7357571541162,527.955457001226
19800,1,646.19640994644,1114.414908000268
14146,8,1268.7348843817517,1265.544598000124
28008,2,420.3865862904581,404.9167609999422
26890,2,609.6457833553941,1673.9770900004078
15865,10,1463.2032686911054,960.2364909998141
16078,4,717.0771580814633,785.0502330004238
