,8311,9093,4611,25489,8765,10900,5302,7635,9105,8244,7838,8686,12410,11944,10534,7631,23957,8722,9097,9223,12903,7947,9900,7645,10244,9901
8311,0.0,67.42761,865.490034,665.804926,422.533184,167.594877,445.689697,313.268144,103.155327,281.928338,232.797932,459.80507,288.198688,354.754761,196.198437,300.199436,683.125048,203.313251,139.929441,329.732257,338.382352,252.330787,139.305044,270.689159,92.381855,128.677443
9093,67.42761,0.0,910.573004,704.054582,467.616154,100.167267,490.772668,289.791954,35.727717,320.177994,175.07051,498.054726,324.548997,391.105071,241.281408,288.912375,728.208019,241.562907,74.340615,270.157538,376.632008,198.495162,188.382924,240.866379,141.459735,185.596745
4611,849.685492,891.121993,0.0,590.032755,543.831098,991.28926,419.800337,975.387457,926.84971,667.73486,1056.492316,836.748071,863.917431,772.221538,681.23343,953.241281,213.890175,853.309593,932.453815,887.353147,956.993023,1045.348082,782.203771,971.021175,761.151392,783.365555
25489,652.417947,693.854449,590.032755,0.0,344.22898,759.608525,274.44673,513.823974,716.604113,415.501103,675.460551,303.784646,420.792857,331.659897,483.965885,454.448609,407.66777,508.117748,735.18627,690.085602,484.793763,621.374849,584.936226,553.015424,563.883848,586.09801
8765,466.587462,505.330591,490.495127,310.658575,0.0,605.497858,70.694791,529.292804,541.058308,197.833767,632.564887,412.840908,447.385558,358.738486,283.789676,511.303158,308.130142,383.312815,556.700998,497.678809,514.363632,578.479185,406.450954,501.024396,385.398576,407.612738
10900,167.594877,100.167267,1002.285635,759.608525,567.783421,0.0,582.485299,264.61404,64.439551,420.345261,124.075843,534.24735,388.428619,454.984692,341.448675,311.226535,819.92065,306.647323,88.98877,299.759063,385.34359,168.612072,275.709521,215.688465,241.627002,263.03208
5302,429.885156,471.321657,419.800337,350.168853,124.030762,571.488924,0.0,558.672983,507.049374,247.934524,636.691979,500.166061,489.743921,446.063639,261.433094,533.440945,237.435351,437.90193,512.653479,467.552811,537.192687,625.547746,362.403435,555.613511,341.351056,363.565219
7635,313.268144,289.791954,975.387457,513.823974,533.103673,264.61404,563.342525,0.0,289.232025,396.05325,180.466065,288.462799,186.96483,253.520904,369.03727,65.441984,793.022471,177.699396,327.844922,501.966685,173.583999,126.380363,394.505964,58.020938,373.453586,395.667748
9105,103.155327,35.727717,946.300721,725.101145,503.343871,64.439551,526.500385,289.232025,0.0,355.905711,167.178205,510.237904,323.989068,390.545142,277.009125,288.352447,763.935736,242.207772,73.780686,269.597609,409.961576,197.935233,224.110641,240.306451,177.187452,221.324461
8244,279.502338,317.751994,663.928474,420.097946,197.833767,417.919261,244.128138,386.594695,353.479711,0.0,450.965389,391.115916,317.665632,287.280998,149.040029,363.207035,481.563489,240.614705,392.092609,402.55135,366.958777,423.125283,289.229407,358.326287,258.155414,290.391191
7838,232.797932,175.07051,1075.943326,675.460551,632.986477,124.075843,656.14299,180.466065,167.178205,450.591263,0.0,450.099376,334.114085,400.670158,406.65173,227.078561,893.578341,269.890594,199.586001,408.940402,301.195616,84.464097,353.753247,131.540491,306.830057,350.967067
8686,465.739383,503.989039,840.125592,303.784646,458.387339,534.24735,422.061357,288.462799,511.851813,391.115916,450.099376,0.0,195.431682,121.306672,433.285718,229.087434,657.760607,299.9647,550.46471,559.34994,226.094033,396.013673,451.88922,327.654249,430.836842,453.051004
12410,288.198688,324.548997,863.917431,420.792857,447.385558,388.428619,451.872499,186.96483,323.989068,310.897241,334.114085,195.431682,0.0,142.050878,283.881262,143.546276,681.552446,115.502704,362.601966,413.34665,173.891431,280.028383,305.88593,211.668958,284.833551,307.047714
11944,354.754761,391.105071,772.221538,334.556004,378.402886,454.984692,354.157303,253.520904,390.545142,285.551068,400.670158,121.306672,142.050878,0.0,346.420346,237.545679,589.856553,182.058778,429.158039,486.407907,272.474614,346.584456,378.947187,278.225032,357.894809,380.108971
10534,205.18792,246.624422,689.969467,512.60227,262.819175,346.791689,270.169131,348.740518,282.352139,148.48449,411.994744,448.68294,279.811456,346.36753,0.0,323.50848,507.604482,218.339933,309.144085,280.247621,327.260222,400.850511,158.894042,336.051514,137.841663,160.055825
7631,300.199436,288.912375,954.951882,454.448609,513.751066,311.226535,542.441126,65.441984,288.352447,359.993497,227.078561,229.087434,136.931484,233.085329,316.527097,0.0,772.586897,160.401097,326.965344,442.59132,134.258129,172.992858,335.130599,104.633434,314.078221,336.292383
23957,667.320506,708.757008,213.890175,407.66777,361.466112,808.924275,237.435351,793.022471,744.484725,485.369875,874.12733,654.383085,681.552446,589.856553,498.868444,770.876296,0.0,670.944608,750.088829,704.988162,774.628037,862.983097,599.838786,788.656189,578.786407,601.000569
8722,203.313251,241.562907,856.920359,523.102072,386.923581,306.647323,438.718577,177.699396,242.207772,249.873157,269.890594,298.103871,121.989995,188.546068,222.857178,161.724171,674.555374,0.0,280.82067,358.827749,200.022659,215.804892,251.367029,138.350104,230.314651,252.528813
9097,139.929441,74.340615,941.189852,763.714043,536.015203,88.98877,521.389516,327.844922,73.780686,394.518608,199.586001,548.850801,362.601966,429.158039,310.852511,326.965344,758.824867,280.82067,0.0,238.66328,448.574473,236.54813,214.613737,278.919348,192.704873,201.936297
9223,329.732257,270.157538,898.909919,721.542722,477.271007,299.759063,479.109583,450.313114,269.597609,395.577333,408.940402,550.255536,381.384052,447.940126,282.128072,425.081076,716.544934,329.542061,238.66328,0.0,428.832818,432.365054,222.522672,447.253643,251.445873,218.852969
12903,399.092759,411.111461,1012.353459,530.951064,564.68403,385.933547,592.553123,174.173956,410.551532,410.105494,301.785572,251.539063,213.433939,309.587785,366.639094,168.959348,829.988474,259.708535,449.16443,492.703316,0.0,247.69987,385.242596,179.340446,364.190217,386.40438
7947,252.330787,198.495162,1052.086729,621.374849,582.089951,168.612072,633.884947,126.380363,197.935233,422.357561,84.464097,396.013673,280.028383,346.584456,395.341582,172.992858,869.721744,215.804892,236.54813,432.365054,247.109914,0.0,373.286101,77.454789,326.362912,370.499921
9900,139.305044,188.382924,789.680194,612.312996,384.505545,275.709521,369.879857,345.982581,224.110641,282.813041,353.753247,445.925002,277.053519,343.609592,159.342853,320.750542,607.315208,225.211527,214.613737,239.994701,324.502284,373.286101,0.0,342.923109,76.669118,18.548058
7645,270.689159,240.866379,974.631941,553.015424,504.635163,215.688465,556.430159,58.020938,240.306451,367.584739,131.540491,327.654249,211.668958,278.225032,340.56876,104.633434,792.266955,138.350104,278.919348,474.736271,178.750489,77.454789,369.078611,0.0,336.92114,370.240395
10244,92.381855,141.459735,773.344927,595.97773,368.170279,241.627002,353.544591,327.99556,177.187452,250.061249,306.830057,427.937981,259.066498,325.622571,143.007587,302.763522,590.979942,197.594974,192.704873,267.587643,306.515263,326.362912,76.669118,315.306556,0.0,74.333028
9901,128.677443,185.596745,788.262728,610.89553,383.088079,263.03208,368.462391,344.565115,221.324461,281.395575,350.967067,444.507536,275.636053,342.192126,157.925387,319.333076,605.897742,223.794061,201.936297,236.324998,323.084818,370.499921,18.548058,341.505643,74.333028,0.0
