Link,Num_Units,Service_Time,Service_Dist
9093,1,491.65306361648334,78.13855800055899
4611,4,781.7984984293241,1219.033292999491
25489,4,811.1705358576808,1415.984817999648
8765,2,412.7479912737948,353.6968569990713
10900,3,511.32345887646727,210.03660399955697
5302,1,498.95029362610234,127.06947000068612
7635,1,533.7569313653032,360.4622129993513
9105,1,526.8868600848571,314.39557499904186
8244,4,609.6014412712567,64.38159100082703
7838,10,1513.5298237889806,1297.696627999423
8686,4,698.5770322209968,660.9993220004253
12410,3,599.880348448529,803.8467710004188
11944,3,507.9496872097443,187.41408500052057
10534,4,607.7219870954992,51.77908199932426
7631,1,546.1248578603229,443.3942190008238
23957,4,688.1489314611007,591.074640999781
8722,1,509.5269723465627,197.99042699974962
9097,3,528.2292472474003,323.396830000449
9223,11,1465.3538036591076,170.00762399937958
12903,4,643.2664843716775,290.11947500007227
7947,1,503.4968177625692,157.5557740002405
9900,1,486.7985679617105,45.587179001187906
7645,1,521.560451533373,278.679827000713
10244,2,378.0607341714085,121.10461000050418
9901,6,890.0228377570327,335.4235879997723
