,17602,16607,15877,27756,14415,17067,14792,16575,28301,28473,19172,27536,20268,18932,28175,27552,26891,16968,27960,16288,28513,16314,15755,28319,27653,28349,27689,26117,17777,17865,15274,26018,18926,27389,27980,26957,16483,26181,28515,26892,16140,16893,15285,16121,28008,16313,27012,27954,26798,15443,26583
17602,0.0,7538.611731499999,20002.21702,17155.4923605,19579.341604,12062.135329999997,20026.553412000005,18108.109223,7338.293083499999,19996.135629500004,35763.385514999994,14482.235182500002,36229.803274499995,31533.061282999995,12697.331756,14065.320277499999,14354.4148195,8664.599020999996,7567.7132895,11150.43432,31472.14150199999,3559.6362470000004,14552.507035499997,9124.301693,16298.598683500002,12979.1365455,24311.21820800001,67041.90442199998,12171.0680865,18138.179115500003,18393.4418775,67861.41709599999,30753.136078999996,31818.323424000002,8178.599257,11753.845055499998,18746.182111000002,45099.95663949999,35288.65306249998,16831.639400500004,5749.124425500001,8805.466640499999,18958.576589500004,6886.194235999999,5344.3317385,3182.4578755,22404.989887000003,9577.203533500002,13456.483291,17800.121904,78164.33339599996
16607,7538.611731499999,0.0,25722.144207500005,21508.458182,25299.26879149999,14864.0030805,20301.468256499997,10569.497491500002,8844.925433,23188.843100000002,34870.57699749999,21557.699564999988,41949.730462000014,24661.209646499996,7393.487357499999,19785.247465000004,17547.039331,11466.466771500001,10335.454704,7101.6880905,34664.848972499996,4952.0831865,18048.438916,14024.4099355,22018.52587099999,16171.761057,30031.14539550001,71666.83335449996,13743.167486999997,21330.886586,24113.36906499999,72486.34602849997,23881.284442499997,37538.25061150001,5493.7693255,17473.772242999996,13446.6527865,49724.88557199999,38481.360533,20024.263912,5080.828103,10312.098989999999,24678.503777,6538.3794365,3392.133291,5329.261558,25597.614398500005,12344.944948,19176.410478499994,23520.049091499994,82789.26232849996
15877,20002.217020000004,25722.144207499998,0.0,9908.282935499998,5952.912014,23005.49934699999,31482.680381000013,35099.82628000001,22641.750873499997,31452.26259850001,47219.51248400001,23663.4923225,27259.5843135,49191.538435,32010.23004600001,10593.512697499998,25810.541788500002,21506.181710999997,15976.6329405,26432.920716,42928.26847100001,22872.534537000003,11621.7848065,16719.649800999996,6362.9124295,24435.263514500002,8145.868160999999,48980.56742700001,24945.587699500004,29594.306084500007,5301.937414500001,49800.08010100001,48411.613231,11816.106404000002,23461.085653000002,13327.013578499995,40159.267287999995,27038.619644500006,46744.78003150001,25421.678747500002,23352.9504585,26707.652935499988,3275.6239645,22168.680632,24204.5291615,22495.3561655,29905.740510000003,17986.1231845,7169.6171810000005,10301.805010999999,60102.996400999975
27756,17155.4923605,21508.458182000002,9908.2829355,0.0,6526.649785500002,13113.862476500004,36761.7554085,35144.3923815,18283.189622000005,36731.33762600001,52498.58751150001,31217.437179000004,22728.781075000003,51167.514265499995,37915.700222499996,15206.639476000002,31089.616816000005,16528.4810425,11173.003478,23466.7667585,48207.34349850002,20025.8098775,3460.0192660000002,23462.856615500004,5598.148604999999,29714.338542000005,17440.4746205,58224.62674849998,28906.270083,34873.381112,6666.290707000001,59044.139422499975,50387.589061499995,21060.165725500006,22185.974385500005,7295.148408000001,39952.95740549998,36282.678965999985,52023.85505900002,33566.841397,22077.839191000003,16816.016065000007,7779.934888999998,19363.723838500006,19990.843136000003,19648.631505999998,39140.1918835,11425.211924000001,10609.3334205,2177.7567885000003,69347.05572249995
14415,19579.341604,25299.268791499995,5952.912014000001,6526.6497855,0.0,20719.008957999995,34701.441145000004,42749.53886299999,25888.33610349999,34671.02336250001,50438.27324800001,29157.1229155,21306.6722995,58772.66074699997,31587.354630000013,11682.193425499998,29029.3025525,21083.306295,15553.757524499999,31071.913239999987,46147.029235000016,22449.659121,9565.692304500004,19938.410564999995,5471.142607499999,27654.0242785,13485.103699,52209.310641000004,28164.348463500002,32813.066848500006,1940.4496974999997,53028.823315,57992.73554299997,15044.849618,23038.210237,11740.606503499997,37636.204985,30267.3628585,49963.54079550002,30188.452887499996,22930.075042499997,24421.162546499992,2688.1211114999996,21745.805215999997,23781.653745499996,22072.4807495,34672.51465,17530.884962499997,7536.640448,4348.892997000001,63331.73961499997
17067,12136.037929999997,14728.0640645,22902.911120999997,13190.696994499998,20618.410808000004,0.0,31735.78939800001,21243.937516999995,7128.7460535,31705.371615500007,47472.62150100001,26191.4711685,36935.373965499995,35335.649671999985,19215.184658,15294.6144055,26063.6508055,5477.549073,5254.8782075,14105.953078,43181.377488000006,13149.269142,10213.0646025,20833.537679,17658.566588499998,24688.3725315,28955.95772099999,70378.37728199997,23880.304072499996,29847.415101500006,19432.511081500004,71197.88995599998,34555.724467999986,33826.386099999996,9605.19689,8954.238923500001,24121.092812,48436.42949949999,46997.88904850001,28540.8753865,9497.061695499999,7455.202384500001,20865.2448425,8312.791868999999,13210.4490185,12572.577332500001,34114.225873,3875.1415685,15031.237473999996,15363.588549000004,81500.80625599997
14792,21159.850636000003,20301.4682565,30943.545887999997,36869.4700645,34162.306652,31765.720260000006,0.0,18793.812353999998,27041.878013500005,12267.420002499997,17082.935886000003,16361.955321500003,55943.78097850003,26976.436385999998,20255.560134,22412.207151499995,13143.867994500002,28368.183951000003,27271.298219500004,31351.73394,21664.70676699999,21047.688897999997,34266.48473950001,15247.783316999998,32208.1203895,11768.589720500002,30839.89886799999,70623.82993299997,9619.4126975,10409.4634885,33511.332052499994,71443.34260699998,25979.701805999997,41591.98737499999,27882.18418700001,31467.822759500013,17583.020336,48681.88215049999,25481.21832749998,13772.8906925,27774.048992500007,28509.051570500007,32029.9854935,26589.779166000008,20591.595037499996,23652.9897815,18284.401113999997,29280.78846350001,27893.340700999997,37514.099608000004,81746.25890699997
16575,18108.56455,10569.952818500004,35100.281607000004,35224.5739025,42652.28771599997,20964.485407,18793.812353999998,0.0,15541.9807175,26857.199438499996,30257.531583000004,28631.625657499997,58969.250873500016,15419.955388000006,7143.555176,32541.429905500005,27112.143234499996,17566.949097999997,19713.5921035,12905.181355000004,38337.663809000005,15522.036005000002,32263.48046349999,25377.006071000003,39692.443496500004,25736.864960499996,41407.36383200001,81191.29489699993,17651.627030499996,24999.242924499995,41466.38798949998,82010.80757099994,14640.030184000005,46916.388011,12190.824610000001,31004.654784499995,4166.668728000001,59249.3471145,42154.17536950001,27741.165932499996,13089.449801500003,20366.275320499997,34056.6411765,13235.434721000001,13962.086109500002,15899.214376500002,32874.18054999998,21749.7551575,28554.547877999994,37397.46545699998,92313.72387099992
28301,7269.940610499998,8844.925432999999,22835.669189500008,18339.141228,25766.855041499995,7239.7947325,26869.692078500004,15541.525390499997,0.0,26839.274296,42606.5241815,21325.37384899999,42083.81819900001,29633.237545499993,13512.772531499999,16898.772447000003,21197.553485999993,2807.3671525,7448.9796860000015,6121.2471964999995,38315.28016850001,8283.171822499999,15378.047789,15967.440359499997,22807.01082199999,19822.275211999993,27144.670377500013,68780.35833649998,19014.206752999995,24981.317782,24580.955314999996,69599.87101049999,28853.312341499994,34651.7755935,3902.7847635,14119.22211,18418.6806855,46838.410554,42131.79172900001,23674.778066999992,3794.649569,1467.1735569999998,26013.68907599999,2950.7026985,8344.351698999999,7706.4800129999985,29248.1285535,8025.064483,16289.9354605,20512.032782500006,79902.78731049997
28473,20686.629904500005,25151.819875999994,30470.3251565,36396.24933300001,33689.0859205,31292.499528500008,12267.4200025,26884.587754500004,26568.657282000007,0.0,26643.5668325,8458.138448,55470.56024700004,38721.36555650001,22010.0146755,21938.98642,5753.206231000001,27894.963219500005,26798.077488000006,30380.79851850001,17858.269050500006,23556.947421500005,33793.26400800001,14774.5625855,31734.899658000006,7883.22929,26541.30162949999,66325.23269449998,11373.867239000001,1857.9565140000002,33038.111321000004,67144.7453685,37941.44035250001,37293.390136500006,27408.963455500012,30994.602028000016,25934.4863845,44383.284911999996,21674.780611,5467.183354,27300.82826100001,28035.83083900001,31556.764762000006,26116.55843450001,25341.642913000007,23179.769050000003,8262.9946905,28807.56773200001,27420.119969500003,37040.87887650001,77447.66166849995
19172,36896.682738999996,34870.57699749999,46680.377991000016,52606.30216749998,49899.13875499999,47502.552363,17082.935886,30257.531582999993,42778.7101165,26643.566832500008,0.0,32098.787424500002,71680.61308150004,18657.712944999996,30596.057919,38149.03925450002,28880.7000975,44105.01605400001,43008.13032250001,41873.19950500002,26178.65746199999,36375.273932,50003.31684249998,30984.615420000013,47944.9524925,27505.4218235,46576.73097100002,86360.66203599997,25356.244800500004,24785.610318500007,49248.16415549999,87180.17470999998,17660.978364999995,57328.81947800001,43619.01629000001,47204.65486249998,28137.46880200001,64418.71425350001,29948.754443499984,29509.7227955,39406.9318485,44245.8836735,47766.81759649999,42326.611269,35919.1800715,36314.241399499995,31825.38290099999,45017.620566500016,43630.17280400001,53250.93171099999,97483.09100999996
27536,15268.981515500003,19558.133869999998,23663.4923225,30978.600944000013,28257.9587135,25874.851139500002,16361.955321500005,28668.225673499997,21151.008893000002,8458.138447999998,32098.787424500002,0.0,50052.91185800004,40505.003475500016,23793.652594499992,16507.859212999996,4089.262842,22477.3148305,21380.429099,24963.150129500005,22598.06348849999,18139.299032500003,28375.615619000007,9343.4353785,26303.772451,5183.752456,20211.342859499997,59995.27392449998,12504.444715,10707.739533,27606.984114000003,60814.78659849998,39725.07827150002,30963.431366500005,21991.315066500007,25576.953639000014,27718.124303499997,38053.32614199999,26414.575048999985,3886.3661030000003,21883.179872000004,22618.182450000004,26125.637555,20698.910045500004,19923.994524000005,17762.120661,8370.427865500002,23389.919343000005,21988.9927625,31623.230487500008,71117.70289849995
20268,36229.8032745,41949.730462,27259.5843135,22728.781075000003,21306.6722995,37035.972115499986,55836.0663225,59066.5020205,42205.29926099999,55805.64854000002,71572.89842550001,50291.748093,0.0,75089.62390449995,48237.8163005,32988.865725,50163.92773000001,38951.117238499995,32204.219194999994,47388.87639749999,67281.65441250002,39100.1207915,25882.655461999995,41245.08286450002,23159.578281,48788.649456000014,34791.775998499994,64093.242875499986,47980.58099700001,53947.69202600001,22240.341407000004,65910.98992249998,74309.69870049995,36351.521917499995,39688.6719075,28391.068173999996,54286.66665549998,51574.035158,71098.16597300004,52641.15231100002,39580.536713,40738.12570399999,23994.793411000002,38396.266886499994,40432.115416,38722.94242,58214.50279750001,33847.848119999995,28834.88140649999,20551.024286499996,76213.90622249995
18932,31618.744510000008,24669.080359499992,49199.40914800001,51338.0383645,58765.75217799999,35063.61294800001,26976.436385999994,15427.370774000003,29641.108258500008,38796.4400385,18657.712945000003,40570.86625749999,75082.71533550005,0.0,19077.730893,44480.67050550001,39051.3838345,31666.076639000014,33812.719644500015,27004.308896,50276.904409,29621.163545999996,48376.94492549999,37316.246671,55805.90795850002,37676.1055605,53346.60443200001,93130.53549699993,29590.86763049999,36938.48352449999,57579.852451499995,93950.04817099994,996.7345799999999,64098.692939,26289.95215100001,47118.1192465,12794.294558,71188.5877145,54093.415969500005,39680.40653249999,27188.577342500008,31108.28181550001,48155.768717499996,27334.56226200001,28061.213650499994,28308.7011345,44813.421149999995,35848.88269850002,42653.675419000014,53510.929919,104252.96447099993
28175,12697.331756000003,7393.4873575,32010.230046000015,37787.866992499985,31587.354630000005,18935.277221000004,20285.930743,7240.5796900000005,13512.772531500003,22396.363395500004,30596.057919000006,24170.789614499994,48237.81630050003,19070.315507,0.0,28080.5938625,22651.3071915,15537.740912,17651.196108500004,10875.973169000003,33876.82776599999,10268.857855999999,25364.1803205,20916.170028,28306.611709500005,21276.0289175,36946.527788999985,76730.45885399992,13190.790987500002,20538.406881500003,30401.454903500005,77549.97152799994,18290.390303,43826.33645,10161.616424000003,23761.858081500013,6283.436335,54788.511071499976,37693.33932649999,23280.3298895,11060.241615500005,14979.946088499999,30966.589615500012,11206.226535000002,8908.817730499999,10207.8253235,28413.344506999994,19660.686352500008,25464.496317000005,29808.134930000007,87852.88782799992
27552,13515.535612500002,19785.247465,10593.5126975,15200.122698999998,11682.193425499998,15294.6144055,22951.341644500008,32578.0299215,16704.854131,22920.923862000003,38688.1737475,17407.023415,32988.865724999996,44414.80772350002,27703.456842499996,0.0,17279.203052,15569.284968499996,10039.736198,20496.023973499996,34396.929734499994,16385.853129500007,12786.244738999998,8188.311064500001,9728.007162999998,15903.924777999999,14902.5138855,56538.2018445,16414.248963,21062.967348000002,11031.218825999997,57357.7145185,43634.88251950002,22409.619101500004,17524.188910499997,10540.434826999997,31627.9285515,34596.25406200001,38213.441295,19756.427633,17416.053715999995,18172.027688000002,9549.872266999999,16231.783889499997,18267.632419,16008.674758000005,25329.778119500006,12049.226442000001,5413.2274744999995,15844.752242499997,67660.63081849997
26891,15033.089097500004,17547.039331,24816.784349500005,30742.708526000017,28035.545113500004,25638.958721500007,13143.8679945,27180.987949500002,20915.116475000006,5753.206231,28880.700097500005,4089.262842,49817.01944000004,39017.7657515,22306.414870499997,16285.445612999996,0.0,22241.422412500004,21144.536681000005,24727.25771150001,23112.27708649999,17903.406614500007,28139.72320100001,9121.0217785,26081.358851000005,1965.665129,22172.426023499993,61956.35708849998,11670.267434,7440.538912,27384.570514000006,62775.86976249998,38237.8405475,32924.5145305,21755.42264850001,25341.061221000018,26230.8865795,40014.40930599999,26928.788646999987,2477.2245810000004,21647.28745400001,22382.290032000008,25903.223955000005,20463.01762750001,16538.323492000003,17526.228243000005,8921.7505825,23154.02692500001,21766.579162500002,31387.338069500012,73078.78606249996
16968,8738.501621,11330.527755500003,21506.18171100001,16528.481042499996,21083.306295000006,5477.549073,28338.25308900001,17846.401208,2807.3671525,28307.835306500005,44075.085192,22793.934859499994,42292.68133050001,31938.113362999993,15817.648348999996,15569.284968500002,22666.1144965,0.0,6519.4219465,9179.495644,39783.84117900002,9751.732833,12462.5758475,17436.001369999998,17802.563374500005,21290.8362225,25815.182899000014,67450.87085799998,20482.7677635,26449.878792500003,19897.406568500006,68270.38353199999,31158.188158999994,33322.288115,6207.660581,11203.7501685,20723.556503000003,45508.923075499995,43600.35273950002,25143.339077499997,6099.5253864999995,1676.0366885,20462.54128050001,4915.25556,9812.9127095,9175.0410235,30716.689564000004,6262.8188235,14960.447982000003,20720.895914000008,78573.29983199998
27960,7737.981222499999,10335.454704000002,15976.632940499998,11173.003478000002,15553.757524500004,5254.8782075,27344.244270500007,19713.1367765,7255.06137,27313.826488000002,43081.07637349999,21799.92604099999,32204.219195,33804.84893149999,17651.1961085,10039.736198,21672.105677999996,6519.4219465,0.0,11046.231212500003,38789.83236050001,8756.6597815,7712.984212,16441.9925515,12273.014604000005,20296.827403999996,20285.634128500005,61921.322087499975,19488.758944999998,25455.869974,14367.857798000005,62740.83476149997,33024.9237275,27792.7393445,8074.396149500001,6454.158533,22590.292071500004,39979.37430499998,42606.343921000014,24149.330258999995,7966.260955000001,8195.458634999999,14932.99251000001,6781.991128500001,8817.839658,9133.838153,29722.6807455,2009.490244,9430.899211500002,13774.5378245,73043.75106149995
16288,10874.420406999996,7101.688090499999,33241.49087599999,23529.2767495,30956.990563,13938.430412000002,31355.273306,12904.726028000005,6059.153725499999,30443.754092500007,41872.744177999986,24929.8536455,47273.95372050002,26996.43818299999,10875.973169000004,20496.023973500003,24802.0332825,8899.588207,11046.2312125,0.0,41919.75996500002,7924.122091,20568.183310499997,19571.920156,27997.146343499993,23426.7550085,30741.92190400001,72377.60986299996,18243.0634125,28585.797578500005,29771.0908365,73197.12253699997,26216.512978999992,44164.96585499999,3523.463719,19309.357631500003,15781.881323000003,50435.662080499984,45736.27152550002,27279.2578635,4422.0889105,8670.9781675,31203.824597499995,4568.07383,7308.4939465,8301.3004625,32852.60835,13082.394266500003,19887.186986999994,25702.168304,83500.03883699996
28513,33583.079613,38049.48652650001,43366.77486500001,49292.69904149998,46585.53562899999,44188.949236999986,22984.750008000003,39782.25440500001,39465.10699049999,18693.654986500005,26178.657461999996,23654.5845555,68367.00995550002,51619.03220700001,34907.681326,34835.436128500005,23899.3768055,40791.412928,39694.5271965,43277.248227000004,0.0,36453.39713,46689.71371649998,27671.012294,44631.3493665,22524.0985315,43294.319621,75498.01433699997,24271.533889500006,16835.698472500004,45934.561029499986,76317.52701099998,50839.10700300001,54046.408127999995,40305.413164,43891.051736499976,38832.153034999996,61136.30290349999,5355.518579500001,22551.764959500008,40197.2779695,40932.28054749999,44453.21447049999,39013.00814299999,38238.092621499985,36076.2187585,17573.881727,41704.01744050001,40316.56967800001,49937.32858499999,86620.44331099997
16314,3559.636247,4952.0831865,22872.534537000007,20025.8098775,22449.659120999997,13285.208157999998,23123.04231,15521.580677999997,7296.6827495,23092.624527500004,36375.273932,17578.724080499996,39100.120791500005,29613.29283299999,10268.857855999999,16935.637794500002,17450.903717499998,9887.671848999998,8756.659781500002,7924.122091,34568.6304,0.0,17422.8245525,12220.790590999999,19168.916200499996,16075.625443499997,27181.535725000012,70138.39331999997,12844.361551499998,21234.668013500002,21263.759394499997,70957.90599399999,28833.36762899999,34688.640941000005,4952.287028000001,14624.162572499998,15575.439108999999,48196.44553749999,38385.1419605,19928.128298499996,3502.0331805,8763.8563065,21828.894106500004,4990.136753000001,1784.6954915,377.1783715,25501.478785000003,10766.150025500003,16326.800808,20670.439420999995,81260.82229399997
15755,14552.507035499997,18048.438916,11621.784806500002,3460.019266,9565.692304500002,10371.457748500003,34158.77008350001,32399.299593500004,14113.772828000001,34128.352301000006,49895.60218650001,28614.451854000003,25882.655462,48422.4214775,25364.180320500003,12786.244739,28486.631491000004,12462.5758475,7712.984211999999,20721.6739705,45604.35817350001,17422.8245525,0.0,21042.4618785,7230.193127999999,27111.353217000003,18527.5842605,59950.00382149998,26303.284757999998,32270.39578700001,8379.792578,60769.51649549998,47642.4962735,22773.667596500003,16590.2236645,3835.1291420000002,37207.86461749998,38008.05603899999,49420.869734000014,30963.856072000002,16482.08847,14070.923277000004,9493.43676,15297.8186435,16530.82387,17045.646180999996,36537.206558499995,8002.5667490000005,8322.8084625,5653.4205955,71072.43279549996
28319,9748.525404000002,14024.4099355,16719.649800999992,23456.3398385,19938.410565000002,20354.395028000006,15786.917810000003,25413.606087,15630.552781500004,15756.500027499998,31523.749913,10242.599580500002,41245.08286450002,37250.38388900001,20539.033007999995,8188.311064499999,10114.7792175,16956.858719000003,15859.972987500001,19442.694017999995,27232.505899999993,12618.842921000005,21042.4618785,0.0,17984.224302500003,8739.5009435,21028.650988999998,62664.33894799998,9249.8251285,13898.5435135,19287.435965500004,63483.85162199998,36470.45868500001,28535.756204999994,16470.858955,20056.497527500003,24463.504717,40722.39116549999,31049.017460499985,12592.003798500002,16362.723760500001,17097.726338500004,17806.089406500003,15178.453934000001,13015.6940965,12241.664549500005,18165.354284999994,17869.463231499998,13669.444614,24100.969381999996,73786.76792199994
27653,16298.598683499997,22018.525871,6362.9124295,5598.148604999999,5471.1426075,17829.6131565,32763.84149050001,39860.14306149999,22998.94030199999,32733.423708000006,48500.67359350002,27219.523261,23159.578281,45487.92009850002,28306.611709500008,9744.593770999996,27091.702898,17802.563374499998,12273.014604,28182.51743849999,44209.42958050001,19168.9162005,7251.077537999999,18000.810910499993,0.0,25716.424624,13895.104114499998,55317.5236755,26226.748809,30875.467194000004,4285.242881,56137.0363495,44707.99489450002,18179.018833500002,19757.467316500002,8459.863583,34355.4620645,33375.575893,48025.94114100001,28250.853232999998,19649.332122,21531.766744999994,4234.564383000001,18465.0622955,20500.910825000003,18791.737828999998,32734.9149955,15253.644286999997,5599.040793499999,6242.7781485000005,66439.95264949996
28349,13657.810823500004,16171.761057000003,23441.5060755,29367.43025200001,26660.2668395,24263.680447500003,11768.5897205,25805.709675500002,19539.838201000002,7883.229290000001,27505.421823499997,5183.752456,48441.74116600004,37642.48747750001,20931.136596499997,14910.167338999998,1965.665129,20866.1441385,19769.258407,23351.979437500006,21736.99881249999,16528.128340500007,26764.444927000008,7745.743504500001,24706.080577,0.0,23337.859055499986,63121.79012049999,10294.989160000001,8398.577928,26009.292240000002,63941.302794499985,36862.562273500014,34089.9475625,20380.144374500007,23965.78294700001,24855.6083055,41179.842337999995,25553.510372999983,4442.8897099999995,20272.009180000005,21007.011758000004,24527.945681,19087.739353500005,15163.045218000003,16150.949969000007,10016.240196500003,21778.748651000005,20391.300888499998,30012.059795500005,74244.21909449995
27689,24311.218208000013,30031.145395500003,8145.111001000001,17439.717460500004,13484.346539000004,29193.399664999994,30748.138727000005,41443.96384800001,26950.752061500003,26541.301629499998,46484.97083,20211.342859499993,34791.01883850001,53280.74165000001,36569.390769,14902.513885499999,22172.4260235,25815.182899000003,20285.6341285,30741.921904000006,42176.54094700001,27181.535725000012,18614.8640465,21028.650988999998,13894.3469545,23700.721860499994,0.0,41422.41956100002,25280.1828895,28842.5785605,12833.371939500003,42241.932235000015,52500.81644600001,12390.577002999999,27770.086841000008,18192.308770500003,40493.862477999995,19480.471778500003,45993.05250750001,21969.5292845,27661.951646500005,32895.55325349999,10807.058489500003,26477.681820000005,28513.530349500004,26804.35735350001,23405.350416000005,22295.124372500006,13065.101418000002,17833.239536000005,52544.84853499998
26117,67828.65075499998,71666.83335450002,48980.567426999994,58224.626748499984,52209.310641,70615.81922600002,70532.06979199998,81227.894913,68586.44002050001,66325.2326945,86268.90189499997,59995.27392449999,64093.242875500015,93064.67271499996,76353.32183400002,56538.20184450002,61956.35708849999,67450.87085800002,61921.322087500004,72377.609863,75498.01433699991,70698.968272,60037.283607500016,61903.10461800001,55316.76651549999,63484.65292550001,41422.419561,0.0,65064.11395450001,68626.50962550002,51558.33604149999,7249.747539,92284.74751099997,42625.252617000006,69405.7748,59827.99672950001,80277.793543,21941.947782500003,76889.62731350001,61753.4603495,69297.63960550001,74317.97281450003,50857.86494249999,68113.36977900002,70149.21830850001,70321.78990049999,60966.525015999985,63930.81233150001,54700.78937700001,56558.203637999984,17552.663839000004
17777,13245.285484500004,13743.167487000002,24945.5876995,28954.90491300001,28164.3484635,23851.1551085,9894.3921135,16198.795913500002,19127.312862,12004.824765999998,25631.224216499995,12504.444714999998,48029.21582700004,28035.57371549999,11324.222834500004,16414.248962999995,10850.828711999999,20453.6187995,19356.73306800001,18243.0634125,23485.289136499985,12844.3615515,26351.919588000008,9249.825128499999,26210.162201,9475.550437999998,25280.18288949999,65064.1139545,0.0,10146.868252,27513.373864,65883.62662849999,27255.648511499992,36032.2713965,16635.1446475,23553.25760800001,15248.694543500003,43122.166172000005,27301.800696999977,11697.386474000003,16222.203425000002,20594.486419,26032.027305,18675.2140145,12734.451648000002,12783.329019,18021.805877499995,21366.223312000013,21895.382512499997,29599.534456500005,76186.54292849996
17865,18828.673390500004,23293.863361999996,28612.3686425,34538.29281900002,31831.129406500004,29434.543014500003,10409.4634885,25026.631240500003,24710.700768000002,1857.9565140000002,24785.610318499996,10707.739533000002,53612.60373300003,36863.40904250001,20152.058161499997,20081.029906,7440.538911999999,26037.0067055,24940.120974,28522.842004500006,16000.312536500007,21698.990907500003,31935.307494000008,12916.6060715,29876.943144000004,7769.692308999999,28539.913398499986,68323.84446349998,9515.910725000002,0.0,31180.154807000006,69143.35713749999,36083.48383850001,39292.0019055,25551.006941500007,29136.645514000014,24076.529870500002,46381.89668099999,19816.824097,7304.236947999999,25442.871747000005,26177.874325000004,29698.808248000005,24258.601920500005,23483.686399000006,21321.812536,7874.937625500001,26949.611218000005,25562.163455500002,35182.92236250001,79446.27343749997
15274,18393.44187750001,24113.369065,5301.937414500001,6666.290707000002,1940.4496975,19533.1092315,34050.46654550001,41563.63913649998,24702.436376999995,34020.048763000006,49787.298648500015,28506.148316000003,22240.341407000004,57586.76102049997,30401.454903500016,11031.218825999997,28378.327953000004,19897.406568500002,14367.857798000003,29886.01351349999,45496.05463550001,21263.759394500008,8379.792578000002,19287.435965499997,4285.242880999999,27003.049679000003,12834.129099499998,51558.3360415,27513.373864000005,32162.09224900001,0.0,52377.8487155,56806.83581649997,14393.8750185,21852.310510500007,10554.706777,36450.3052585,29616.388259000003,49312.566196000014,29537.478288,21744.175316000004,23235.262819999996,2037.146512,20559.905489500004,22595.754019,20886.581023000006,34021.54005049999,16344.985236000002,6885.665848500001,5294.430388500001,62680.765015499965
26018,68648.16342899998,72486.34602850002,49800.08010099999,59044.13942249998,53028.823314999994,71435.3319,71351.58246599998,82047.407587,69405.95269450001,67144.7453685,87088.41456899997,60814.78659849999,65910.98992250001,93884.18538899996,77172.83450800001,57357.71451850002,62775.86976249999,68270.38353200002,62740.8347615,73197.122537,76317.52701099993,71518.480946,60856.796281500014,62722.61729200001,56136.27918949999,64304.16559950001,42241.932235,7249.747539,65883.6266285,69446.02229950002,52377.84871549999,0.0,93104.26018499996,43444.765291,70225.287474,60647.50940350001,81097.306217,22761.4604565,77709.13998750002,62572.973023499995,70117.1522795,75137.48548850001,51677.37761649999,68932.88245300001,70968.73098250001,71141.30257449999,61786.03768999998,64750.32500550001,55520.302051000006,57377.71631199998,17704.649220000003
18926,30838.81930600001,23889.155155499993,48419.48394400002,50558.11316049999,57985.82697399998,34283.68774400002,25979.701805999994,14647.445570000003,28861.18305450001,38016.5148345,17660.978365000003,39790.9410535,74302.79013150003,996.7345799999999,18297.805689,43700.745301500014,38271.4586305,30886.151435000014,33032.794440500016,26224.383692,49496.979205,28841.238341999997,47597.019721499986,36536.321467,55025.982754500015,36896.1803565,52566.679228000015,92350.61029299993,28810.94242649999,36158.55832049999,56799.92724749999,93170.12296699994,0.0,63318.76773500001,25510.02694700001,46338.19404249999,12014.369354,70408.6625105,53313.490765500006,38900.48132849999,26408.65213850001,30328.35661150001,47375.8435135,26554.63705800001,27281.288446499995,27528.7759305,44033.495945999995,35068.95749450002,41873.75021500002,52731.004714999995,103473.03926699993
27389,31818.323424000017,37538.2506115,11816.106404000002,21060.165725500006,15044.849618,33926.984249999994,41500.22723399998,46915.93268400001,34457.8572775,37293.3901365,57237.05933699999,30963.431366499997,36351.521917499995,64032.830157,43826.33645000002,22409.619101500008,32924.514530500004,33322.288114999996,27792.739344500005,44279.88853199999,52928.629454,34688.64094100001,22773.667596500003,28535.756204999994,18179.018833500006,34452.810367499995,12390.577002999999,42625.25261700001,36032.27139649999,39594.66706749999,14393.8750185,43444.76529100001,63252.904953,0.0,35277.192057,25143.119982500008,51245.95098499998,20683.304834500002,56745.141014500005,32721.617791500004,35169.0568625,37629.13783849999,13693.4039195,33984.787035999994,36020.6355655,34311.462569500014,31934.682458000003,29802.22958850001,18985.723585,19393.742615000003,53747.68159099998
27980,7902.585343999999,5493.769325500001,23461.08565300001,22241.9259915,23038.210237,9325.289453,27502.336812,12190.369283000002,3902.7847635000003,27471.9190295,43239.16891499999,21958.01858249999,39688.67190750001,26282.081437999994,10161.616424,17524.188910500005,21830.19821949999,5927.753144,8074.396149500001,3523.463719,38947.92490200001,4952.287028,16310.316227500003,16600.085092999994,19757.4673165,20454.91994549999,27770.086841000015,69405.77479999997,16635.1446475,25613.9625155,21852.3105105,70225.28747399998,25502.156233999995,35277.19205700001,0.0,15212.7136885,15067.524578000002,47463.8270175,42764.436462500016,24307.42280049999,1450.2538475,5369.9583205,22417.445222500006,1596.2387669999998,5013.466904500001,5329.465399500001,29880.773286999996,10110.559203500003,16915.351924000002,21258.990536999998,80528.20377399997
26957,11753.8450555,17473.772243000003,13323.957054499999,7295.148408,11740.606503500003,9112.632069500001,31360.108103500013,31140.473914500002,12854.947149000001,31329.69032100001,47096.9402065,25815.789874000002,28391.068174,47163.595798500006,23761.858081500013,10540.434827,25687.969511000003,11203.7501685,6454.158533,19462.8482915,42805.696193500014,14624.162572500003,3835.1291420000002,18796.651966499998,8459.863583,24312.691237000003,18192.3087705,59827.99672949997,23504.622777999994,29471.733807000008,10554.706777000001,60647.50940349997,46383.67059450001,25140.063458499997,15212.7136885,0.0,35949.038938499994,37886.04894699998,46622.20775400002,28165.194092,15104.578494,12812.097598000004,11561.715687000002,13920.3086675,15956.157197000002,14246.984201000003,33738.544578500005,6743.74107,6076.9985504999995,9488.549737500003,70950.42570349993
16483,18824.449952,13447.108113499999,40217.714684000006,40116.06611849997,37714.472826000005,23841.640701999997,17583.020335999998,4166.668728000001,18419.136012499996,26002.1454805,28137.468801999996,27776.5716995,54364.934496500035,12786.879172,6283.436335000001,31686.375947500008,26257.0892765,20444.104392999994,22590.747398499996,15782.336650000001,37482.609850999994,15575.439108999997,37154.97267949998,24521.952113000007,34433.72990550001,24881.8110025,40552.309874,80336.24093899992,16796.5730725,24144.188966499998,36528.57309950001,81155.75361299994,12006.953968,51304.39838099999,15067.979904999997,35896.14700049999,0.0,58394.29315649999,41299.1214115,26886.1119745,15966.605096499996,19886.309569499997,37093.707811500004,16112.590015999995,14215.398983499997,15514.406576499998,32019.12659199999,24626.910452499997,31591.614513000008,42288.957672999975,91458.66991299992
26181,45886.70297249997,49724.885572,27038.6196445,36282.678966,30267.362858499997,48673.87144350001,48590.12200949999,59285.9471305,46644.49223799999,44383.284911999996,64326.954112499996,38053.32614199998,51574.03515800003,71122.72493249997,54411.37405149999,34596.254062,40014.40930599999,45508.9230755,39979.37430499999,50435.662080500006,60018.52422950002,48757.02048949996,38095.335825,39961.1568355,33374.81873300001,41542.705143,19480.471778500003,21941.947782499996,43122.166172,46684.56184300001,29616.388259,22761.4604565,70342.79972849997,20683.304834500002,47463.8270175,37886.04894699999,58335.845760499986,0.0,63835.03579000002,39811.51256699999,47355.691823,52376.02503200001,28915.917159999997,46171.421996499994,48207.270526,48379.842117999964,39024.57723350001,41988.864549,32758.841594499994,34616.2558555,33064.37675650001
28515,33118.350869500006,37584.757783000015,42902.0461215,48827.970297999986,46120.80688549998,43724.22049349999,22520.021264500003,39317.52566150001,39000.37824699999,18228.926243,26924.637528499992,23189.855811999998,67902.28121200003,51154.303463500015,34442.9525825,34370.70738500001,23434.648062,40326.6841845,39229.798453,42812.51948350001,2331.4016645,35988.668386499994,46224.984972999984,27206.2835505,44166.62062299999,22059.369788,42829.590877500006,75033.28559349997,23806.805146000006,16370.969729000004,45469.832285999975,75852.79826749998,50374.378259500016,53581.6793845,39840.6844205,43426.32299299998,38367.4242915,60671.57416,0.0,22087.036216000008,39732.549226,40467.551803999995,43988.48572699998,38548.279399499996,37773.36387799998,35611.490014999996,19376.3199385,41239.28869700001,39851.8409345,49472.59984149999,86155.71456749996
26892,17510.31367850001,20024.263912,25421.678747500002,33219.93310700001,30512.769694500003,28116.183302500005,13772.890692500003,27810.010647500003,23392.341056000005,5467.183354,29509.722795500005,3886.3661030000003,52294.244021000035,39646.78844950001,22935.437568499998,18762.670194,2477.224581,24718.646993500002,23621.761262000004,27204.482292500008,21716.379023499994,20380.63119550001,30616.947782000017,11598.2463595,28558.583432000003,4442.88971,21969.529284499993,61753.46034949998,12299.290132000004,7304.236948,29861.795095000005,62572.97302349998,38866.86324550001,32721.6177915,24232.64722950001,27818.28580200002,26859.909277500003,39811.51256699999,25532.89058399999,0.0,24124.512035000007,24859.514613000007,28380.448536000004,22940.242208500007,19015.548073,20003.452824000007,8718.853843500001,25631.251506000008,24243.8037435,33864.56265050001,72875.88932349996
16140,5749.1244255,5080.828103,23352.950458500007,22133.790796999998,22930.075042499997,9217.1542585,27394.201617500003,13088.994474500003,3794.649569,27363.783835,43131.03372049999,21849.883387999987,39580.53671300001,27180.706629499993,11060.241615500003,17416.053716000002,21722.063024999992,5819.6179495,7966.260955000002,4422.0889105,38839.789707500015,3502.0331805000005,16202.181033000003,16491.949898499995,19649.332121999996,20346.784750999992,27661.951646500012,69297.63960549998,16222.203425000002,25505.827320999997,21744.175315999997,70117.15227949999,26400.781425499994,35169.05686250001,1450.2538475,15104.578494,15966.149769500002,47355.691823,42656.30126800002,24199.28760599999,0.0,5261.823125999999,22309.310028000004,1488.1035725000002,3563.2130570000004,3879.211552,29772.638092499998,10002.424009000002,16807.216729500004,21150.855342499995,80420.06857949997
16893,8737.1141675,10312.098990000002,26584.181797499994,16871.967671,24299.6814845,7281.121333499998,28336.86563550001,17008.698947499997,1467.1735569999998,28306.447853000005,44073.6977385,22792.547405999994,40616.64464200001,31100.411102499995,14979.946088499997,17245.321657000004,22664.727043,1676.0366885,8195.458635,6942.0068415,39782.45372550002,9750.3453795,13910.874232,17434.6139165,21339.837264999995,21289.448769,32637.228397499992,74059.64795849995,20481.38031,26448.491339000004,23113.781758,74879.16063249996,30320.485898499996,37507.6567765,5369.958320500001,12652.048553,19885.854242500005,52117.700175999984,43598.96528600002,25141.951623999998,5261.823126,0.0,24546.515518999997,4417.8762555,9811.525256,9173.65357,30715.302110500004,7938.855512000001,18729.047103499994,19044.859225500008,85182.07693249994
15285,18958.576589500004,24678.503776999998,3275.6239645,7779.934888999998,2688.1211115,20646.7534135,32569.119986500013,34056.18584950001,21598.110443,32538.70220400001,48305.95208950002,27024.801757,23994.793411,48147.89800450001,30966.589615500015,9549.872266999999,26896.981394000002,20462.5412805,14932.992510000004,30999.65769549999,44014.70807650001,21828.894106500004,9493.436760000004,17806.089406499996,4234.564383,25521.703120000002,10807.8156495,50857.864942500004,26032.027305000003,30680.745690000007,2037.1465120000003,51677.3776165,47367.972800500014,13693.403919500002,22417.445222500006,11561.715687,37015.439970499996,28915.917160000005,47831.21963700001,28056.131729,22309.310028000004,24348.907001999996,0.0,21125.040201500004,23160.888731,21451.715735,32540.193491500002,16942.482754,5404.319289500001,7037.0141085000005,61980.29391649997
16121,6610.1803230000005,6538.379436499999,22168.680632000007,19083.816401499997,21745.805216000004,8032.884432,26209.931791000006,13234.979394,2950.7026985,26179.514008500002,41946.763894,20665.61356149999,38396.2668865,27326.691548999992,11206.226535000002,16231.783889500002,20537.793198499996,4635.348123,6781.991128500001,4568.073829999999,37655.519881,4990.136753,15017.911206500003,15307.680071999997,18465.062295500004,19162.514924499996,26477.681820000013,68113.36977899999,18354.446465499997,24321.5574945,20559.905489500004,68932.882453,26546.766344999993,33984.787036,1596.2387669999998,13920.308667500001,16112.134689,46171.421996499994,41472.0314415,23015.017779499995,1488.1035725000002,4417.876255499999,21125.040201500007,0.0,5051.316629500001,5367.315124500001,28588.368266,8818.1541825,15622.946903000004,19966.585516000003,79235.79875299998
28008,5344.331738500001,3392.133291,24204.529161500006,19990.843136000003,23781.653745499996,13346.388034499996,20591.5950375,13961.6307825,7357.862626000001,24877.320019000006,35919.18007149999,19363.419572,40432.115416,28053.342937499994,8908.817730499999,18267.632419000005,16538.323492,9948.851725499997,8817.839658,7308.4939465,36353.325891500004,1784.6954915,16530.82387,13015.6940965,20500.910824999995,15163.045218,28513.53034950001,70149.21830849999,12734.451647999997,23019.363505000005,22595.754018999996,70968.73098249998,27273.417733499995,36020.6355655,5013.466904500001,15956.157196999999,14215.3989835,48207.27052599999,40169.83745200001,19015.548073,3563.2130570000004,8825.036183,23160.888731000006,5051.316629500001,0.0,2161.873863,24588.89855950001,10827.329902000001,17658.795432500003,22002.4340455,81271.64728249997
16313,3182.4578755000002,5329.261558,22495.356165500005,19648.631506,22072.480749499995,14555.2744755,22745.863938500002,15898.759049499997,9831.432229,22715.446156,36314.241399499995,17201.545708999995,38722.94242000001,28301.285748499995,10207.825323500001,16558.459423,17073.725346,11157.738166500001,9133.838153000002,8301.300462500001,34191.452028499996,377.1783715,17045.646180999996,11843.6122195,18791.737828999994,15698.447071999999,26804.35735350001,69761.21494849998,12783.329018999999,20857.489642,20886.581022999995,70580.72762249998,27521.360544499996,34311.46256950001,5329.465399500001,14246.984200999997,15514.4065765,47819.26716599999,38007.963589,19550.949926999998,3879.211552,11298.605785999998,21451.715735,5367.315124500001,2161.873863,0.0,25124.300413500005,11143.328397000003,15949.6224365,20293.261049499997,80883.64392249996
27012,23083.664165000006,25597.61439849999,29905.740510000003,38793.28359350001,34672.514650000005,33689.533789,18284.401114000004,32901.568866,28965.691542500004,8262.9946905,31825.382901000004,8370.4278655,57867.59450750004,44738.346668000006,28026.995786999996,24336.0206805,8921.750582499999,30291.99748,29195.111748500003,32777.83277900001,18791.759614000002,25953.981682000005,36190.29826850001,17171.596845999997,32718.32838750001,10016.2401965,23405.35041600001,60966.52501599999,17390.8483505,7874.9376255,34021.5400505,61786.03768999999,43958.42146400001,31934.682458000014,29805.99771600001,33391.63628850001,31951.467495999997,39024.5772335,22608.271174499994,8718.8538435,29697.862521500007,30432.865099500006,32540.19349150001,28513.592695000007,24588.898559499994,25576.803310500003,0.0,31204.601992500007,28856.563081000008,39437.91313700002,72088.95398999997
27954,9747.4714665,12344.944948000004,17986.123184499997,11425.211924,17530.884962499993,3875.1415685,29353.734514500004,22029.207267499994,7914.015804,29323.316732,45090.5666175,23809.416284999992,33847.84812,36120.91942250001,19660.686352500004,12049.226442,23681.595921999993,6262.8188235,2009.490244,13362.301703500001,40799.32260450002,10766.150025500001,8002.566749000001,18451.482795499996,15232.759877000004,22306.317647999993,22295.124372500006,63930.81233149999,21498.249188999995,27465.360217999998,16344.985235999997,64750.32500549999,35340.99421850001,29802.2295885,10390.4666405,6743.741070000001,24906.362562500002,41988.864549,44615.83416500002,26158.82050299999,10282.331446,7938.855511999999,16942.482754000008,9098.0616195,10827.329902000001,11143.328397000001,31732.1709895,0.0,11440.3894555,13618.613253499998,75053.24130549995
26798,13456.483290999999,19176.410478499998,7166.560657000002,10651.6737775,7536.640448000001,15189.630620000004,28432.475194000002,28554.092551,16096.017144499998,28402.057411499998,44169.30729699999,22888.156964499987,28834.881406499993,42645.804706000024,25464.49631700001,5413.2274744999995,22760.336601499992,14960.447981999996,9430.8992115,19887.186986999994,39878.06328400002,16326.800808000002,8322.808462499997,13669.444613999995,5582.454185500001,21385.05832749999,13065.101417999998,54700.789377,21895.3825125,26544.100897499997,6885.665848500002,55520.302051,41865.879502000025,18982.667061,16915.351923999995,6076.9985505,31513.346672000003,32758.8415945,43694.57484450002,25237.56118249999,16807.216729499996,18889.096148500004,5404.319289500001,15622.946902999996,17658.7954325,15949.622436500002,28856.563081,11440.3894555,0.0,11296.303321000001,65823.21835099996
15443,17800.121904000003,23520.049091499997,10301.805011,2177.7567885,4348.892997,15091.536027000006,37406.384952,37122.065932000005,20260.863172500005,37375.96716950001,53143.21705500001,31862.066722500007,20551.024286499996,53145.18781599999,29808.134930000015,15851.269019500003,31734.246359500008,20469.726304000007,13774.5378245,25444.440309,48851.97304200002,20670.439421000003,5653.4205955,24107.486159000004,6242.7781485000005,30358.968085500008,17833.996696,56558.20363799998,29550.899626500002,35518.0106555,5294.430388500002,57377.716311999975,52365.26261199999,19393.742615000003,21258.990537,9488.549737500001,41930.63095599998,34616.255855499985,52668.48460250002,34211.4709405,21150.8553425,18793.689615500007,7037.0141085,19966.585516,22002.4340455,20293.2610495,39784.82142700001,13618.613253500002,11253.962964000002,0.0,67680.63261199994
26583,78951.07972900003,82789.26232850003,60102.996401000004,69347.0557225,63331.739615000006,81738.2482,81654.49876599999,92350.323887,79708.86899450002,77447.66166850005,97391.33086899998,71117.70289849999,76213.90622249998,104187.10168899997,87475.75080800003,67660.63081850002,73078.78606250002,78573.29983200002,73043.75106150004,83500.03883700001,86620.44331099998,81821.39724600005,71159.7125815,73025.533592,66439.1954895,74607.08189950002,52544.84853500001,17552.663839,76186.54292850001,79748.9385995,62680.7650155,17704.64922,103407.17648499997,53747.681591000015,80528.20377400001,70950.4257035,91400.22251700002,33064.37675650001,88012.05628750003,72875.88932350001,80420.06857950002,85440.4017885,61980.2939165,79235.79875300002,81271.64728250002,81444.21887450005,72088.95399,75053.24130550002,65823.21835100002,67680.63261199999,0.0
