,11725,11142,25334,13040,13011,11066,13198,13245,18517,13058,12489,13001,18686,11247,20681,28626,13270,11753,7677,20704,18684,13191,19659,11435,20705,28883,12527,18576,7987,13445,12926,546,25326,20735,12978,28604,11148,10958,20623,11117,20708,11225,28639,11135,12469,28590,12520,11697,18573,20793,13206
11725,0.0,4731.847859,6288.913948999999,7275.967565499997,8336.053633499996,4558.444342999999,5103.298702499999,6824.456152500001,34360.3519455,7962.763434999998,8138.8500159999985,9084.123832999998,49617.453567,4453.635775,42249.240629000014,57006.75542300001,4929.289946500001,7004.689905999999,17043.207902,29278.620343999995,49910.5820535,476.92138950000003,19702.768568000003,7735.438350499999,28399.717555999996,62494.79712849997,8028.241305499998,36219.17631350001,8103.466067499999,17608.256292,9440.775518499999,20860.757249499995,11283.276459,31572.936592499995,6124.2584695000005,54401.14734700001,7120.181865500001,5287.785881,33167.65147599999,6800.454122999998,31062.755876999996,5686.4231359999985,54107.96089300002,5947.140383,7708.667451499998,56267.126539500015,8230.255528999998,6294.5976464999985,35862.939333,36493.781318500005,8646.001751999998
11142,6597.047162000001,0.0,4870.969523,7476.376157499999,8536.462225499998,4758.852935,5218.0693855,3013.3943704999997,33709.0860005,8163.172026999998,8544.881136,9284.532425,48966.18762199999,4568.4064579999995,41597.97468400001,56355.489478,2590.2846465,7205.0984979999985,16391.941957,28627.354399,49259.316108499996,7073.9685515,19051.502623,7935.846942499999,27748.451611,61843.53118349997,8687.8777575,35567.91036850001,5793.369739500001,16956.990347,9539.833361500001,20209.4913045,11483.685051000002,30921.6706475,6324.6670615,53749.881402000006,3309.1200834999995,3032.3678889999996,32516.385531,7460.090574999999,30411.489932,5886.831727999998,53456.69494800001,974.031147,8368.3039035,55615.86059450001,8889.891981,5742.588938499999,35211.673387999996,35842.5153735,8846.410344
25334,6619.257923000001,4870.969523,0.0,3182.068319500001,4242.154387500001,5037.888067000001,5933.3487165,7731.6157175,28288.697256500007,3868.864189000001,8646.597570000002,4990.224587,43545.798878,6414.549311,36177.585940000004,50935.100734,5942.853773499999,2235.00918,10971.553213000003,23206.965655000007,43838.92736450001,7096.1793125,13631.113879000004,5306.799024500001,22328.062867000008,56423.14243949998,9321.501565500002,30147.521624500005,767.8026825,11536.601603000001,9672.720426500004,14789.102560500001,7178.479909999999,25501.281903500007,5079.534445500001,48329.492658,8100.4479445,6384.937016,27095.996787000007,8956.221650000003,24991.101188000008,5410.885984999999,48036.30620400001,4235.893216,9001.927711500002,50195.471850500006,9523.515789000003,8408.0910495,29791.284644000003,30422.12662950001,3684.405086
13040,6709.082398500001,7987.094362499999,3648.1345945,0.0,1869.195648,5120.314651499999,6015.775300999999,10358.753952,30065.776169,1495.9054495,8736.4220455,2617.2658475,45322.877790499995,6496.975895499999,37954.664852500006,52712.1796465,9058.978613,1413.1254144999998,12748.6321255,24984.0445675,45616.006277,7186.003788,15408.192791500001,2933.8402849999998,24105.1417795,58200.22135199997,9411.326041,31924.600537,3808.8902909999997,13313.680515499998,6437.725259,16566.181472999997,4409.445051500001,27278.360816,3346.2246050000003,50106.571570500004,11216.572783999998,7659.0500455,28873.0756995,9046.046125500001,26768.1801005,4315.5728205,49813.38511650001,7352.018055500001,9091.752187,51972.55076300001,9613.3402645,7671.158375999999,31568.363556499997,32199.205542000007,2808.8200855
13011,5014.2862105,8581.1141555,4242.1543875,1869.1956479999997,0.0,4037.9540755,4167.447739,10952.773744999999,30659.795961999997,1167.2150545,5980.9145615,1434.4402635000001,45916.89758349999,7090.995688499998,38548.6846455,53306.19943949999,9652.998405999997,2007.1452074999997,13342.651918499998,25578.064360499997,46210.02606999999,5491.207600000001,16002.212584499997,1064.6446369999999,24699.161572499997,58794.24114499996,7270.069964,32518.620329999994,4402.910083999999,13907.700308499998,4568.529611,17160.201265999996,5227.2778875,27872.380608999996,2408.330253,50700.591363499996,11810.592576999998,8253.0698385,29467.095492499997,7362.0815555,27362.199893499997,2446.3771725000006,50407.4049095,7946.037848499999,7407.787617,52566.570556,7472.0841875,6618.780985,32162.383349499993,32793.22533500001,3626.6529215
11066,3038.137472,4758.852935,5118.731693999999,4451.9888885,4037.9540755000007,0.0,1280.5147505,6952.5713774999995,31536.373268499992,5138.784757999999,5171.799438,6260.145155999999,46793.47488999999,2120.487439,39425.26195200001,54182.776746,5054.4024855,4180.7112290000005,14219.229224999997,26454.641666999993,47086.603376499996,3515.0588614999997,16878.789890999997,3884.1131295000005,25575.738878999993,59670.81845149997,5751.2127325,33395.1976365,5279.4873904999995,14784.277614999997,6096.1743065,18036.778572499992,8459.297782,28748.957915499992,2272.9332485,51577.16867000001,7248.2970905,3417.3635059999997,30343.672798999993,5385.932817,28238.777199999993,1835.097915,51283.98221600001,4123.776628,5431.6388785,53443.14786250001,5953.2269559999995,3294.6699194999997,33038.960655999996,33669.802641500006,5822.023075
13198,2515.1965315,4769.9035225,5917.2121205,5347.449538000001,4167.447739,1280.5147505,0.0,6865.514502,32334.853694999994,4026.3278434999997,4463.0305055,4995.0000915,47591.955316499996,2033.4305635,40223.742378500014,54981.25717250001,4967.345609999999,5076.1718785,15017.7096515,27253.122093499995,47885.083803,2992.117921,17677.2703175,4013.6067930000004,26374.219305499995,60469.29887799997,5042.4438,34193.67806300001,6077.967817000001,15582.7580415,5463.2939369999995,18835.258998999994,9354.758431500002,29547.438341999994,2402.426912,52375.64909650001,7161.240215,3330.3066305,31142.153225499995,3721.2003914999996,29037.257626499995,1964.5915785,52082.46264250002,5019.2372775,4722.869946,54241.628289000015,5244.458023499999,1650.3366739999997,33837.441082499994,34468.283068000004,6717.4837245
13245,9253.2203415,3155.8597284999996,7731.6157175,9848.035746999996,10908.121814999999,7130.5125245,7874.965278000001,0.0,31444.856733999997,10534.8316165,11201.0543155,11656.192014499999,46701.95835549999,7225.3023505,39333.74541750001,54091.260211500005,3877.8348290000004,9576.758087499997,14127.712690499999,26363.125132499998,46995.086842,9730.141731000002,16787.273356499998,10307.506532,25484.222344499998,59579.30191699997,11780.467610000002,33303.681101999995,7892.371414,14692.761080499999,12196.006541000002,17945.262037999997,13855.3446405,28657.441380999997,8696.326651000001,51485.65213550001,2688.830467,5689.263781500001,30252.156264499998,10117.5125315,28147.260665499998,8258.491317499998,51192.46568150001,3359.0211865,11460.893756000001,53351.63132800001,11982.481833500002,8399.484831,32947.4441215,33578.28610700001,11218.069933499999
18517,33059.81862250001,33617.4974735,28099.644649500005,29622.629019000007,30682.71508700001,31478.4487665,32373.909416000002,31353.268207000005,0.0,30309.42488850001,35087.1582695,31430.78528650001,16493.6006825,32855.11001049999,9125.3877445,23882.902538500002,33891.012155000004,28675.569879500006,18290.0485435,9480.0906445,16786.729169000002,33536.74001200001,16026.456344500002,31747.359724000005,8601.1878565,29370.944244000002,35762.062265,1858.8243679999998,27019.830406000005,17399.943195500007,36113.281126,14268.436514000005,28050.95074650001,3468.448681,31520.095145000003,21277.294462500005,32702.007793000004,34017.1841605,1873.7337974999998,35396.782349500005,5935.333238499999,31851.446684500002,20984.108008500007,32643.466326499998,35442.488411,23143.273655,35964.0764885,34848.65174900001,1524.4830775,5723.4946310000005,30029.063738500005
13058,4873.166315,8207.823957,3868.864189,1495.9054495,1167.2150545,5341.044246,4026.3278434999993,10579.483546500001,30286.5057635,0.0,6245.968792,1915.2852540000001,45543.607384999996,6717.705489999999,38175.394447000006,52932.909241,9279.7082075,1633.8550089999999,12969.361720000003,25204.774162,45836.7358715,5350.0877045,15628.922386000002,2231.8596915,24325.871374000002,58420.95094649997,7586.2415755,32145.3301315,4029.6198855,13534.41011,5735.7446654999985,16786.911067499997,4853.987689,27499.0904105,2001.6300465,50327.301165000004,11437.3023785,7879.77964,29093.805294,7220.96166,26988.909695000002,2986.772479,50034.11471100001,7572.74765,7266.6677215,52193.28035750001,7788.255799,6477.661089499999,31789.093150999997,32419.935136500008,3253.3627229999997
12489,3458.154271,8190.002130000001,8634.728961,7967.0185475,5980.9145615,5077.9387959999995,4356.8357265,10282.6104235,35052.3705355,6753.650376000001,0.0,5715.183549999999,50309.472157,5445.742935,42941.259219000014,57698.77401300001,7649.4073155,7695.740888,17735.226492,29970.638934,50602.6006435,3935.0756604999997,20394.787158000006,4578.6551035,29091.736146,63186.81571849997,1326.7476095,36911.19490350001,8795.4846575,18300.274881999998,3593.4296075,21552.7758395,11963.430138000002,32264.955182499998,5129.749444500001,55093.16593700001,10578.3361365,5878.382044999999,33859.67006599999,2202.786374,31754.774467,4085.3174129999998,54799.97948300002,8494.596302,2248.4924355,56959.145129500015,1528.761833,3964.0253914999994,36554.957923,37185.7999085,9337.052734
13001,5841.838563000001,9329.184355,4990.224587,2617.2658475,1434.4402635000001,4865.506428,4995.000091499999,11700.8439445,31407.866161499995,1915.2852540000001,5715.18355,0.0,46664.96778299999,7839.065887999999,39296.75484500001,54054.269639000006,10401.0686055,2755.215407,14090.722117999998,26326.134559999995,46958.0962695,6318.7599525000005,16750.282784,981.3932985,25447.231771999996,59542.31134449997,7004.3389525,33266.6905295,5150.9802835,14655.770507999998,4302.7985995,17908.271465499995,5251.601604,28620.450808499994,3235.8826055,51448.66156300001,12558.6627765,9001.140038,30215.165691999995,7867.126482999999,28110.270092999996,3273.929525,51155.47510900001,8694.108048,7912.832544499999,53314.64075550001,7206.353176,7329.341133499998,32910.45354899999,33541.29553450001,3650.976638
18686,48373.675297,48931.354148000006,43413.501324,44936.4856935,45996.571761499996,46792.30544100001,47687.766090500016,46667.12488149999,16482.193110500004,45623.281563,50401.014943999995,46744.641961,0.0,48168.96668500001,11888.856638999998,12746.592748999998,49204.8688295,43989.426554000005,33603.905218,24793.947319000006,608.3609985,48850.5966865,31340.313019000005,47061.2163985,23915.044531000007,13514.415468500003,51075.91893949999,14635.050961500003,42333.6870805,32713.799870000006,51427.13780049999,29582.293188500003,43364.80742100002,19683.558390500006,46833.9518195,12124.607827,48015.864467499996,49331.040835000014,18321.160504000007,50710.639024,21249.189913000006,47165.303359000005,8295.174739,47957.323001000004,50756.34508549999,14397.200689499996,51277.933162999994,50162.508423499996,14957.710033000001,19409.42601350001,45342.92041300002
11247,2493.435396,4929.436153,7106.417947999999,6439.6751425,5681.6711855,2002.079747,1104.0559855,7025.0471325,33524.05952250001,7126.471011999999,4441.269369999999,6509.223537999999,48781.161144,0.0,41412.948206000015,56170.46300000001,5126.878240499999,6168.397483,16206.915479,28442.327921,49074.2896305,2970.356785499999,18866.476145,5527.8302395,27563.425133,61658.504705499974,5020.6826645,35382.883890500016,7267.1736445,16771.963869,5441.5328015,20024.4648265,10446.984036000002,30736.6441695,4439.709521499999,53564.854924000014,7320.7728455,2536.561175,32331.359053,3397.188437,30226.463454,3409.550924999999,53271.66847000002,6144.728677,4701.1088105,55430.83411650002,5222.6968879999995,1628.5755385,35026.64691,35657.4888955,7809.709328999999
20681,41016.86993099999,41574.548782,36056.69595799998,37579.680327499984,38639.76639549998,39435.500074999996,40330.9607245,39310.319515499985,9125.387744500002,38266.47619699998,43044.20957799998,39387.836594999986,11847.132912,40812.16131899999,0.0,14757.514794000002,41848.063463499995,36632.62118799999,26247.099851999985,17437.141953,12140.261398499999,41493.791320499986,23983.507652999993,39704.411032499986,16558.239165,24192.192044500007,43719.11357349998,7278.245595500001,34976.881714499985,25356.99450399999,44070.33243449998,22225.48782249999,36008.00205499999,12326.7530245,39477.14645349998,12151.906718000002,40659.05910149999,41974.235469,10964.355138000004,43353.83365799998,13892.384547,39808.49799299999,11858.720264000001,40600.517635,43399.539719499975,14017.885910500003,43921.12779699998,42805.70305749998,7600.904667000002,10993.262518500002,37986.115047
28626,55774.38472500001,56332.063576000015,50814.210752000006,52337.19512150001,53397.281189500005,54193.01486900002,55088.475518500025,54067.8343095,23882.902538499995,53023.990991000006,57801.724372000004,54145.35138900001,12746.592749000003,55569.676113000016,14757.514794000002,0.0,56605.57825750001,51390.135982000014,41004.61464600002,32194.656746999994,12138.231750500003,56251.30611450001,38741.022447,54461.92582650001,31315.753958999994,11917.465781500005,58476.6283675,22035.76038949999,49734.39650850001,40114.50929800001,58827.8472285,36983.00261650001,50765.51684900003,27084.267818499993,54234.66124750001,3361.7431180000003,55416.573895500005,56731.75026300002,25721.869931999994,58111.348452000006,28649.899340999993,54566.012787000014,4451.41801,55358.03242900001,58157.0545135,1650.6079405,58678.642591,57563.217851500005,22358.419460999994,25750.7773125,52743.62984100003
13270,5860.8309665000015,1826.0903314999998,5478.002645500001,8285.873547999998,9345.959615999998,5060.466921499999,4481.853189999999,3921.701311,34160.689850999996,8972.6694175,7808.664940500001,10094.029815499998,49417.791472499994,3832.1902624999993,42049.57853450001,56807.09332850001,0.0,8014.595888499998,16843.545807500002,29078.958249499996,49710.919959,6337.752356000001,19503.106473500004,9210.817439,28200.055461499996,62295.13503399997,7545.199906,36019.514219000004,6400.402862000001,17408.5941975,8803.617166000002,20661.095154999995,12293.182441500001,31373.274497999995,7599.637558000002,54201.48525250001,4217.4270240000005,2296.1516935,32967.989381499996,6317.4127235,30863.093782499996,6776.946495500001,53908.298798500015,3105.9703275,7225.626052,56067.46444500001,7747.214129499999,5006.372742999999,35663.2772385,36294.119224,9655.907734499999
11753,5627.847744000001,6905.859708000001,2235.0091800000005,947.0591394999999,2007.1452074999997,4039.0799970000003,4934.5406465,9277.5192975,28652.650754500002,1633.8550089999999,7655.187391000001,2755.2154069999992,43909.752376,5415.741241000001,36541.53943800001,51299.054232,7977.7439585,0.0,11335.506711000002,23570.919153000003,44202.8808625,6104.769133500001,13995.067377000003,3071.7898444999996,22692.016365000003,56787.09593749997,8330.0913865,30511.4751225,2395.7648765000004,11900.555101,6575.6748185,15153.0560585,4943.47073,25865.235401500002,4080.7263755,48693.446156000005,10135.3381295,6577.815391000001,27459.950285000003,7964.811471000001,25355.054686000003,4412.077915000001,48400.25970200001,6270.7834010000015,8010.517532500001,50559.42534850001,8532.10561,6589.9237215,30155.238142,30786.08012750001,1641.311846
7677,15834.263105999999,16391.941957000003,10874.089133000001,12397.073502500001,13457.159570500004,14252.893250000001,15148.353899500004,14127.712690500002,18293.256815499994,13083.869372000005,17861.602753,14205.229770000004,33550.358436999995,15629.554494000004,26182.14549899998,40939.66029299997,16665.4566385,11450.014363000002,0.0,13211.525213999998,33843.4869235,16311.1844955,3045.263418,14521.804207500007,12332.622425999998,46427.70199849997,18536.5067485,20152.08118349999,9794.2748895,927.501999,18887.725609499998,4793.6621195,10825.39523,15505.841462499997,14294.539628500002,38334.052216999975,15476.4522765,16791.628644,17100.556345999998,18171.226833,14995.660746999996,14625.891168000002,38040.86576299998,15417.910810000001,18216.9328945,40200.03140949998,18738.520972,17623.096232500004,19795.84420299999,19836.276168500004,12803.508222000004
20704,28908.620916999993,29466.29976799999,23948.446943999996,25471.431313499997,26531.5173815,27327.25106099999,28222.711710499992,27202.0705015,5081.731601500001,26158.227183,30935.96056399999,27279.587581,20338.833223,28703.912304999987,12970.620285,27728.135079000003,29739.814449499994,24524.372173999996,14138.850838000002,0.0,20631.961709500003,29385.542306499992,11875.258639,27596.162018499996,4449.990151,33216.1767845,31610.86455949999,6940.555969500001,22868.632700499995,13248.745490000001,31962.083420499992,10117.238808500002,23899.753041,2294.3162485,27368.897439499993,25122.527003000007,28550.8100875,29865.986454999987,3889.0311319999996,31245.58464399999,1784.1355330000001,27700.248978999993,24829.34054900001,28492.268620999992,31291.290705499992,26988.506195500002,31812.87878299999,30697.454043499994,6584.318988999999,9092.2937915,25877.866032999995
18684,48666.80378350001,49224.48263450001,43706.6298105,45229.614180000004,46289.700248,47085.43392750002,47980.89457700002,46960.253368,16775.321597000006,45916.4100495,50694.1434305,47037.77044750001,608.3609985,48462.09517150001,12181.985125499998,12138.231750499997,49497.99731600001,44282.55504050001,33897.0337045,25087.075805500008,0.0,49143.725173000006,31633.441505500006,47354.344885000006,24208.17301750001,12906.054470000003,51369.047426,14928.179448000004,42626.815567000005,33006.92835650001,51720.266287,29875.421675000005,43657.935907500025,19976.686877000007,47127.080306,11516.2468285,48308.992954,49624.16932150002,18614.28899050001,51003.7675105,21542.318399500007,47458.43184550001,7686.813740500002,48250.45148750001,51049.473571999995,13788.839690999996,51571.0616495,50455.63691,15250.838519500003,19702.554500000013,45636.04889950003
13191,6015.756723499999,4254.926469499999,5811.992559499999,6799.046175999998,7859.132243999998,4081.5229535,4626.377312999999,6347.534763,33883.430556,7485.842045499998,7661.928626499999,8607.202443499998,49140.53217749999,3976.7143854999995,41772.31923950001,56529.8340335,4452.368557,6527.768516499998,16566.2865125,28801.698954499996,49433.660663999995,0.0,19225.847178500004,7258.516960999998,27922.796166499997,62017.87573899997,7551.319915999999,35742.25492400001,7626.544677999999,17131.3349025,8963.854129,20383.835859999996,10806.3550695,31096.015202999995,5647.337079999999,53924.225957500006,6643.2604759999995,4810.8644914999995,32690.730086499996,6323.532733499998,30585.834487499997,5209.501746499997,53631.03950350001,5470.2189935,7231.746061999998,55790.20515000001,7753.334139499998,5817.676256999999,35386.017943499995,36016.859929000006,8169.080362499998
19659,18493.823772,19051.502622999997,13533.649799000003,15056.634168500004,16116.720236500007,16912.453916000002,17807.914565500003,16787.273356500005,16029.696638499998,15743.430038000008,20521.163418999997,16864.790436000007,31286.798260000007,18289.115160000005,23918.585321999984,38676.10011599997,19325.0173045,14109.575029000003,3045.263418,10947.965036999998,31579.92674650001,18970.7451615,0.0,17181.364873500006,10069.062248999999,44164.14182149998,21196.067414499998,17985.686577499993,12453.835555500003,2607.6482319999996,21547.2862755,2222.4638475,13484.955896000001,13242.2812855,16954.100294500007,36070.492039999976,18136.012942500005,19451.189310000005,14836.996169000002,20830.787499,12732.100569999997,17285.451834000007,35777.30558599999,18077.471476,20876.4935605,37936.47123249998,21398.081637999996,20282.6568985,17272.656442999996,16791.012750500002,15463.068888000003
11435,4860.4452645,7935.846942499999,5306.7990245,2933.840285,1064.644637,3884.1131294999996,4013.6067929999995,11684.901417000001,31724.44059899999,2231.8596915,4578.655103500001,981.3932984999999,46981.542220499985,6445.728475499999,39613.3292825,54370.8440765,9007.731193,3071.7898445,14407.296555499997,26642.70899749999,47274.67070699999,5337.366654,17066.8572215,0.0,25763.80620949999,59858.88578199996,5867.810506000001,33583.264966999996,5467.554721,14972.344945499997,3166.270153,18224.84590299999,6291.9225245,28937.02524599999,2254.4893070000003,51765.2360005,11980.62713,7607.8026254999995,30531.74012949999,7208.2406095,28426.84453049999,2292.5362265000003,51472.049546500006,7300.7706355,7253.946671,53631.215193,6069.8247295,6464.940039,33227.02798649998,33857.869972,4691.2975585
20705,29787.523705,30345.202555999993,24827.349732,26350.3341015,27410.420169500005,28206.153848999995,29101.614498499996,28080.9732895,5960.634389500001,27037.129971000002,31814.863351999997,28158.490369000003,21217.736011000005,29582.81509299999,13849.523073000002,28607.037867000003,30618.717237499997,25403.274962,15017.753626000003,878.9027880000001,21510.864497500006,30264.4450945,12754.161427000003,28475.0648065,0.0,34095.079572500006,32489.767347499997,7819.458757500002,23747.535488499998,14127.648278000002,32840.9862085,10996.141596500003,24778.655829000003,3173.2190365,28247.800227499996,26001.429791000006,29429.7128755,30744.88924299999,4767.9339199999995,32124.487431999998,2663.0383210000005,28579.151766999996,25708.24333700001,29371.171408999995,32170.1934935,27867.4089835,32691.781570999996,31576.3568315,7463.221777000001,9971.196579500001,26756.768820999998
28883,61251.01885850002,61808.69770950002,56290.84488550002,57813.82925500002,58873.915323000016,59669.64900250003,60565.109652000036,59544.468443000005,29359.536672000013,58500.62512450002,63278.358505500015,59621.98552250002,13514.415468500001,61046.31024650003,24192.1920445,11917.465781500001,62082.212391000015,56866.770115500025,46481.24877950002,37671.290880500004,12906.054470000001,61727.94024800002,44217.65658050001,59938.55996000002,36792.388092500005,0.0,63953.26250100001,27512.394523000006,55211.03064200002,45591.143431500015,64594.590620999996,42459.63675000001,56242.150982500025,32560.90195200001,59711.29538100002,13487.896937500003,60893.20802900001,62208.384396500034,31198.504065500012,63587.982585500016,34126.53347450001,60042.646920500025,13807.2714205,60834.66656250002,63633.68864700001,10266.857841000001,64155.276724500014,63039.851985000016,27835.053594500012,32286.76957500001,58220.26397450004
12527,4216.215814499999,8446.720741499998,9358.3858535,8690.675439999999,7618.427164000001,5823.512715499999,5114.8972699999995,11040.671967,35776.027427999994,7477.307268500002,1326.7476095,7004.3389525,51033.12904949999,4624.9756195,43664.91611150001,58422.430905500005,7538.798604999999,8419.3977805,18458.8833845,30694.295826499998,51326.257536,4693.137204,21118.444050500006,5867.810506000002,29815.3930385,63910.47261099997,0.0,37634.851796,9519.141549999998,19023.931774499997,4882.585010000001,22276.432731999997,12687.0870305,32988.612075,5853.406337000001,55816.82282950001,9006.360831999998,5767.7733345,34583.32695849999,1490.3731925000002,32478.4313595,4830.891332499999,55523.63637550001,9240.170221499999,844.549031,57682.80202200001,411.2009945,3636.3772819999995,37278.6148155,37909.45680099999,10060.709626500002
18576,34918.64299050002,35476.32184150001,29958.469017500003,31481.453387000005,32541.53945500001,33337.27313450001,34232.73378400001,33212.092575,1858.8243679999998,32168.249256500007,36945.98263750001,33289.60965450002,14646.458533500001,34713.9343785,7278.2455955000005,22035.7603895,35749.836523000005,30534.394247500004,20148.8729115,11338.9150125,14939.58702,35395.56438000002,17985.6865775,33606.18409200001,10460.0122245,27523.802095000006,37620.88663300001,0.0,28878.654774000002,19258.767563500005,37972.10549400001,16127.260882000004,29909.775114500007,5327.273048999999,33378.919513,19430.152313500002,34560.832161,35876.00852850001,3732.5581655,37255.60671750001,7794.1576065,33710.27105250001,19136.965859500004,34502.29069450001,37301.31277900001,21296.131505999998,37822.90085650001,36707.47611700001,713.0301345,5787.790685,31887.888106500002
7987,6780.013619500001,5793.3697395,767.8026825,3342.824016000001,4402.910084000001,5198.643763500001,6094.104413,7892.371414,27134.876418999997,4029.6198855000007,8807.3532665,5150.9802835,42391.978040499984,6575.3050075,35023.76510249999,49781.27989649998,6865.253989999999,2395.7648765,9817.732375499998,22053.144817499997,42685.10652699999,7256.935009000001,12477.293041499997,5467.554721000001,21174.242029499997,55269.32160199996,9482.257262000001,28993.700786999994,0.0,10382.780765499998,9833.476123000002,13635.281722999996,7339.235606499999,24347.461065999996,5240.290142000002,47175.671820499985,7834.766646,7307.3372325,25942.175949499997,9116.977346500002,23837.280350499997,5571.641681499999,46882.48536649999,5158.2934325,9162.683408,49041.65101299999,9684.271485500001,8568.846746,28637.463806499993,29268.30579200001,3845.1607825
13445,16340.102533,16897.781384,11379.92856,12902.912929499998,13962.9989975,14758.732676999998,15654.1933265,14633.552117500001,17391.94077149999,13589.708799000002,18367.442180000002,14711.069197,32649.042393000003,16135.393921,25280.82945499998,40038.34424899998,17171.296065500002,11955.85379,927.501999,12310.209169999996,32942.17087950001,16817.0239225,2607.648232,15027.643634500004,11431.306381999997,45526.38595449998,19042.346175500003,19250.76513949999,10300.1143165,0.0,19393.5650365,3892.3460754999996,11331.234656999999,14604.525418499996,14800.379055500001,37432.73617299998,15982.2917035,17297.468071,16199.240301999998,18677.066260000003,14094.344702999995,15131.730595,37139.54971899999,15923.750237,18722.772321500004,39298.715365499986,19244.360399,18128.935659500006,18894.52815899999,19398.660982500005,13309.347649000001
12926,4348.4698085,9074.195764500002,9502.502886499999,6437.725259000001,4568.529611,5972.379392499999,5247.151263999999,11166.804058,35920.144460999996,5735.7446655,3593.4296075000007,4302.798599500001,51177.246082499994,6336.0584725,43809.03314450001,58566.54793850001,9271.637852,6575.6748185,18603.0004175,30838.4128595,51470.374569,4819.269294999999,21262.5610835,3166.270153,29959.5100715,64054.58964399997,4882.58501,37778.968829000005,9663.258582999997,19168.0488075,0.0,22420.549765,9857.6012635,33132.729108,4111.221913,55960.93986250001,11462.529771,7632.9345395,34727.44399149999,5745.3725405,32622.5483925,3683.2283345,55667.753408500015,10289.4882885,5791.078602,57826.91905500001,5084.599233499999,5207.587191,37422.7318485,38053.57383399999,8256.9762975
546,19623.090619499995,20180.769470499992,14662.916646500002,16185.901016000002,17245.987084000004,18041.720763499998,18937.181413,17916.540204,14263.644831,16872.6968855,21650.430266499992,17994.057283500002,29520.746452500007,19418.382007499993,22152.533514499988,36910.04830849999,20454.284151999997,15238.841876500002,4853.3205405,9181.913229500002,29813.87493900001,20100.012008999995,2222.4638475,18310.631720999998,8303.010441500002,42398.09001399998,22325.334261999993,16122.469199000001,13583.102403,3963.2151925,22676.553122999994,0.0,14614.222743500002,11476.229478000001,18083.367141999996,34304.44023249999,19265.27979,20580.456157499993,13070.944361500004,21960.054346499994,10966.0487625,18414.718681499995,34011.253778499995,19206.738323499994,22005.760407999995,36170.41942499999,22527.34848549999,21411.923745999997,15766.2322185,17232.591330000003,16592.3357355
25326,10141.412303000001,11413.727566000001,7115.866908999999,4257.9219925,5227.2778875,8546.947855,9442.408504500001,14617.315856500003,27970.5510135,4853.987689,12168.751950000002,5251.6016039999995,43227.65263499999,9920.033835000002,35859.439696999994,50616.95449099999,12719.146964500002,4880.857729,10653.406970000002,22888.819412,43520.7811215,10618.333692500002,13312.967636000001,6291.922524500001,22009.916624,56104.99619649997,12843.655945500008,29829.3753815,7276.6226055,11218.45536,9861.4184655,14470.9563175,0.0,25183.1356605,6704.3068445,48011.34641499999,14913.041569500003,11082.107984999999,26777.850544,12478.376030000007,24672.954945,8925.642474000002,47718.159961,10778.651259,12524.082091500006,49877.325607499995,13045.670169000008,11094.216315500002,29473.138400999997,30103.98038650001,3320.0904239999995
20735,30275.699781500003,30833.378632499993,25315.525808500002,26838.510178000004,27898.59624600001,28694.3299255,29589.790575,28569.149366,3468.448681,27525.306047500006,32303.0394285,28646.666445500006,19702.507765500002,30070.991169499994,12334.294827500002,27091.809621500004,31106.893313999997,25891.451038500003,15505.929702500003,6695.971803500001,19995.636252000004,30752.621171000003,13242.337503500003,28963.240883000002,5817.069015500001,32579.851327000004,32977.943424,5327.273049,24235.711565,14615.824354500002,33329.162285,11484.317673000003,25266.831905500007,0.0,28735.976304,24486.201545500007,29917.888952,31233.065319499994,1594.7148834999998,32612.6635085,3151.2143975,29067.3278435,24193.015091500012,29859.347485499995,32658.369570000003,26352.180738000003,33179.9576475,32064.532908000005,4992.9317585,8455.968334000001,27244.9448975
12978,3379.0881615000003,6838.1652935,4022.1775654999997,3355.4347599999996,2408.330253,2402.7560265,2532.24969,9209.824883000001,30439.819139999996,2001.6300464999997,5512.750127500001,3235.8826055,45696.92076149998,5348.0468265,38328.7078235,53086.222617499996,7910.0495439999995,3084.1571005,13122.675096499997,25358.087538499996,45990.04924799999,3856.009551,15782.235762499997,2254.489307,24479.184750499997,58574.26432299996,6092.1634220000005,32298.643507999994,4182.933262,13687.723486499997,4111.221913,16940.224443999996,7351.846350499998,27652.403786999996,0.0,50480.6145415,10499.270027,6510.1209765,29247.118670499996,5726.8835065,27142.223071499997,1469.8628855,50187.428087500004,6203.088986500001,5772.589568,52346.593734,6294.1776455,4983.582936,31942.406527499992,32573.248513000006,4725.4689465
28604,53168.77664900001,53726.45550000001,48208.602676,49731.587045500004,50791.6731135,51587.40679300002,52482.86744250002,51462.2262335,21277.294462500005,50418.382915,55196.116296,51539.743313000006,12124.607827000002,52964.06803700001,12151.906718000004,3361.7431180000003,53999.97018150001,48784.52790600001,38399.00657000001,29589.048671000004,11516.246828500001,53645.698038500006,36135.414371,51856.317750500006,28710.145883000005,13487.896937500002,55871.0202915,19430.1523135,47128.788432500005,37508.90122200001,56222.2391525,34377.394540500005,48159.908773000025,24478.659742500004,51629.0531715,0.0,52810.9658195,54126.14218700002,23116.261856000005,55505.740376,26044.291265000003,51960.40471100001,3829.4330879999998,52752.42435300001,55551.446437499995,4605.737388500001,56073.034515,54957.6097755,19752.811385000005,23145.16923650001,50138.02176500003
11148,6564.389874500001,2530.8980165,6182.810330500001,8990.155168999996,10050.241236999998,5764.7485424999995,5186.134811000001,4626.5089960000005,34865.497535999995,9676.9510385,8512.2238485,10798.311436499998,50122.59915749999,4536.471883499999,42754.38621950001,57511.901013500006,1189.004362,8718.877509499996,17548.353492500002,29783.7659345,50415.727644,7041.311264,20207.914158500007,9914.376347000001,28904.8631465,62999.94271899997,9091.637143000002,36724.321904000004,7105.2105470000015,18113.401882500002,9507.176074,21365.90284,12997.4640625,32078.082183,8303.196466000001,54906.29293750001,0.0,3000.4333145,33672.79706649999,7428.682064499999,31567.9014675,7480.5054035,54613.106483500014,3810.7780124999995,8772.063288999998,56772.27213000001,9293.651366500002,5710.654364,36368.0849235,36998.926909,10360.189355499999
10958,4227.364935000001,3349.6929149999996,7319.1503219999995,6652.4075164999995,7712.493584499999,3427.00089,2848.3871585,5445.3038945,33736.791896500006,7339.203385999999,6175.1989090000025,8460.563784,48993.89351799999,2198.7242309999997,41625.68058000001,56383.195374,2441.7707785,6381.129857,16419.647853,28655.060295,49287.022004499995,4704.286324500001,19079.208519000007,7577.3514075,27776.157507,61871.237079499966,5774.1746355,35595.616264500015,7479.9060185,16984.696243,7170.151134500001,20237.1972005,10659.71641,30949.3765435,5966.171526500001,53777.587298000006,5741.029607500001,0.0,32544.091427,4546.387452999999,30439.195828,5143.480464,53484.40084400001,4564.985438999999,5454.600781499999,55643.56649050001,5976.188858999999,3372.9067115,35239.379283999995,35870.221269500005,8022.4417029999995
20623,31870.414665000004,32428.093515999994,26910.240692000003,28433.225061500005,29493.31112950001,30289.044809,31184.5054585,30163.864249500002,1873.7337974999998,29120.020931000006,33897.754312,30241.381329000007,18345.655287,31665.706052999994,10977.442349000003,25734.957143000003,32701.608197499998,27486.165922000004,17100.644586000002,8290.686687000001,18638.783773500003,32347.336054500003,14837.052387000003,30557.955766500003,7411.783899000001,31222.998848500003,34572.658307499994,3732.5581655,25830.426448500002,16210.539238000003,34923.877168499996,13079.032556500004,26861.546789000007,1594.7148834999998,30330.6911875,23129.349067000006,31512.603835500002,32827.780202999995,0.0,34207.378392,4745.929281,30662.042727,22836.16261300001,31454.062368999996,34253.08445349999,24995.328259500002,34774.672531,33659.247791500005,3398.216874999999,7099.1158555,28839.659781000002
11117,3850.9358990000005,7218.933558999999,8993.105938,8325.3955245,7253.1472485,5458.2328,3721.2003915,9314.5445385,35410.7475125,7112.027353000001,2202.7863740000003,8080.699600999999,50667.849134,3397.188437,43299.636196000014,58057.15099000001,6311.011422500001,8054.117865,18093.603469,30329.015910999995,50960.9776205,4327.8572885,20753.164135000003,7099.3063025,29450.113122999996,63545.19269549997,1490.3731925000002,37269.57188050001,9153.8616345,18658.651858999998,5672.9545495,21911.152816499995,12321.807115000001,32623.332159499994,5488.126421500001,55451.54291400001,7778.5736495,4539.986152,34218.04704299999,0.0,32113.151443999996,4465.611416999999,55158.35646000002,8434.226083000001,645.8241615000001,57317.522106500015,1765.8009030000003,2730.0975504999997,36913.3349,37544.1768855,9695.429711
20708,27124.485383999992,27682.16423499999,22164.311410999995,23687.295780499997,24747.3818485,25543.11552799999,26438.576177499992,25417.934968499998,8626.489007500002,24374.09165,29151.82503099999,25495.452048,23883.59062900001,26919.776771999987,16515.377691,31272.892485000004,27955.678916499994,22740.236640999996,12354.715305000002,3544.7574060000006,24176.71911550001,27601.40677349999,10091.123106,25812.026485499995,2665.8546180000003,36760.934190500004,29826.72902649999,10485.313375500004,21084.497167499994,11464.609957,30177.94788749999,8333.1032755,22115.617507999996,5839.0736545,25584.761906499993,28667.284409000007,26766.674554499998,28081.850921999987,7433.788537999999,29461.44911099999,0.0,25916.113445999992,28374.09795500001,26708.13308799999,29507.15517249999,30533.263601500003,30028.74324999999,28913.318510499994,10129.076395000002,12637.051197500003,24093.730499999994
11225,2350.1729489999993,5886.831727999999,5387.420337,4720.5179955,2446.3771725,1835.097915,1964.5915785000002,9174.6291015,31805.061911499997,2986.7724789999997,4483.834914999999,3273.929525,47062.16353299999,4337.761612999999,39693.95059500001,54451.465389000005,7279.4628955,4449.240336000001,14487.917868,26723.330309999998,47355.2920195,2827.0943385,17147.478534,2292.5362265,25844.427521999998,59939.50709449997,5063.2482095,33663.8862795,5548.1760335,15052.966257999999,3683.2283345000005,18305.467215499997,8716.929585999998,29017.646558499997,1872.6351284999998,51845.85731300001,9470.3548145,5634.637679999999,30612.361441999998,4697.968293999999,28507.465842999998,0.0,51552.67085900001,5251.755421,4743.674355499999,53711.83650550001,5265.262432999999,3954.6677234999997,33307.64929899999,33938.4912845,6090.552181999999
28639,52875.590195000004,53433.26904600001,47915.416222,49438.4005915,50498.4866595,51294.220339000014,52189.68098850002,51169.039779499995,20984.108008500003,50125.196461,54902.929842,51246.556859000004,8295.174739,52670.88158300001,11858.720264000001,4451.41801,53706.783727500006,48491.34145200001,38105.82011600001,29295.862217,7686.8137405,53352.511584500004,35842.227917000004,51563.1312965,28416.959429000002,13807.271420500001,55577.833837499995,19136.965859499996,46835.6019785,37215.714768000005,55929.052698499996,34084.2080865,47866.72231900002,24185.4732885,51335.8667175,3829.4330879999998,52517.7793655,53832.95573300002,22823.075402000002,55212.553922,25751.104811,51667.21825700001,0.0,52459.23789900001,55258.25998349999,6102.025950500001,55779.848061,54664.4233215,19459.624931000002,22851.982782500007,49844.835311000024
11135,6454.794977999998,974.031147,4235.893216,6841.299850499998,7901.385918499997,4123.776628,5019.2372774999985,3359.0211865,32735.054853499998,7528.0957199999975,8588.456943999998,8649.456117999998,47992.156474999996,5548.943266999999,40623.943537000014,55381.45833100001,3570.8214555,6570.022190999998,15417.910810000001,27653.323252,48285.2849615,6931.716367499998,18077.471476000006,7300.770635499999,26774.420464,60869.50003649997,9167.8702385,34593.87922150001,5158.293432500001,15982.959200000001,10520.3701705,19235.460157499998,10848.608744000001,29947.639500499998,5689.5907545,52775.85025500001,4216.840018500001,4012.9046979999994,31542.354384,8440.627384,29437.458785,5251.755420999998,52482.66380100002,0.0,8848.296384499998,54641.829447500015,9369.884462,6723.125747499998,34237.642241,34868.48422650001,8211.334036999999
12469,3896.6419604999996,8127.146887499997,9038.8119995,8371.101585999999,7298.85331,5503.938861499999,4795.323415999999,10721.098113,35456.453574,7157.733414500001,2248.4924355,8126.405662499999,50713.5551955,4305.4017655,43345.342257500015,58102.85705150001,7219.224750999999,8099.823926499999,18139.3095305,30374.7219725,51006.683682,4373.563349999999,20798.8701965,7145.012364,29495.8191845,63590.89875699997,844.549031,37315.27794200001,9199.567695999998,18704.3579205,5718.660611,21956.858878,12367.5131765,32669.038221,5533.832483000001,55497.24897550001,8686.786977999998,5448.199480499999,34263.75310449999,645.8241615,32158.8575055,4511.317478499999,55204.06252150002,8920.596367499998,0.0,57363.228168000016,1119.9767415000001,3316.8034279999993,36959.0409615,37589.88294699999,9741.1357725
28590,55034.75584150002,55592.43469250001,50074.58186850001,51597.566238000014,52657.65230600001,53453.38598550003,54348.84663500003,53328.205426,23143.273654999997,52284.36210750001,57062.09548850001,53405.722505500016,14397.200689500003,54830.04722950002,14017.885910500003,1650.6079405,55865.94937400001,50650.50709850002,40264.985762500015,31455.027863499996,13788.839691000003,55511.677231000016,38001.3935635,53722.296943000016,30576.125075499996,10266.857841000003,57736.99948400001,21296.13150599999,48994.767625000015,39374.88041450001,58088.21834500001,36243.37373300001,50025.88796550002,26344.638934999995,53495.03236400001,4605.737388500001,54676.945012000004,55992.12137950003,24982.241048499996,57371.71956850001,27910.270457499995,53826.38390350002,6102.025950500001,54618.40354550001,57417.425630000005,0.0,57939.01370750001,56823.58896800001,21618.790577499996,25011.148429,52004.00095750004
12520,4418.230038,8648.734965,9560.400076999998,8892.6896635,7820.4413875,6025.5269389999985,5316.9114935,11242.6861905,35978.041651499996,7679.321492000001,1528.761833,7206.353176,51235.143272999994,4826.989843,43866.93033500001,58624.44512900001,7740.812828499999,8621.412004,18660.897608,30896.310049999996,51528.2717595,4895.1514275,21320.458274000004,6069.824729500001,30017.407261999997,64112.48683449997,411.20099450000004,37836.866019500005,9721.155773499997,19225.945998,5084.599233500001,22478.446955499996,12889.101254000001,33190.6262985,6055.420560500001,56018.83705300001,9208.375055499997,5969.787557999999,34785.341182,1765.8009030000003,32680.445582999997,5032.905555999999,55725.650599000015,9442.184444999999,1119.9767415000001,57884.81624550001,0.0,3838.3915054999998,37480.629039,38111.471024499995,10262.723850000002
11697,3039.7160845000003,5475.7168415,8562.143230500002,6985.955830999999,6284.851943000001,2548.3604354999998,1650.3366739999997,7571.327821,34979.784805,6681.0646455000015,3964.0253914999994,7329.341133499999,50236.8864265,1570.5076665,42868.67348850002,57626.188282500014,5673.158928999999,6714.6781715,17662.640761500003,29898.0532035,50530.014913000006,3516.637474,20322.201427500007,6131.010997,29019.1504155,63114.22998799998,3636.377282,36838.60917300001,8722.898927,18227.6891515,5207.5871910000005,21480.190109,10993.2647245,32192.369452,5057.163714000001,55020.58020650002,7867.053534000001,4034.1296755000003,33787.084335499996,2730.0975504999997,31682.1887365,4012.7316825,54727.39375250002,6691.0093655,3316.8034279999997,56886.55939900002,3838.3915055,0.0,36482.372192500006,37113.21417800001,8355.9900175
18573,34584.30170000002,35141.98055100001,29624.127727000006,31147.11209650001,32207.198164500012,33002.931844000006,33898.39249350002,32877.7512845,1524.4830774999998,31833.90796600001,36611.64134700001,32955.26836400001,14969.117605000001,34379.593088,7600.904667000001,22358.419461,35415.495232500005,30200.052957000007,19814.531621000002,11004.573722,15262.246091500001,35061.22308950002,17272.656443,33271.84280150001,10125.670934,27846.461166500005,37286.54534250001,713.0301345,28544.313483500006,18924.42627300001,37637.76420350001,15792.919591500005,29575.43382400001,4992.9317585,33044.5782225,19752.811385000005,34226.4908705,35541.66723800001,3398.2168749999996,36921.26542700001,7459.816316,33375.92976200001,19459.62493100001,34167.949404000006,36966.97148850001,21618.7905775,37488.55956600001,36373.13482650001,0.0,5074.7605505,31553.546816000005
20793,35284.83652250001,35842.5153735,30324.662549499997,31847.646919,32907.732987,33703.466666500004,34598.92731600001,33578.28610699999,5727.904783,32534.4427885,37312.1761695,33655.80318650001,19393.9320065,35080.12791049999,10993.262518500003,25750.777312500002,36116.030055,30900.587779499998,19836.276168499997,13566.537702499998,19687.060493,35761.75791200001,16791.012750500002,33972.377624,12687.634914499999,32271.275568,37987.080165,5787.790684999999,29244.848305999996,19398.660982499998,38338.299026,17232.59133,30275.9686465,8456.148774,33745.113045,23145.169236500005,34927.025692999996,36242.2020605,7093.7508874999985,37621.800249500004,10021.780296500001,34076.464584500005,22851.982782500007,34868.4842265,37667.506311,25011.148429,38189.0943885,37073.669649,5074.760550499999,0.0,32254.081638499996
13206,7179.728559000001,8457.740523,3684.4050859999998,2362.7283775,3626.6529215000005,5590.960812,6486.421461499999,10829.400112500001,29978.696167500002,3253.362723,9207.068206,3650.976638,45235.797789,6967.622055999999,37867.58485100001,52625.099645,9529.6247735,1641.311846,12661.552124000003,24896.964566000002,45528.9262755,7656.6499485,15321.112790000003,4691.297558500001,24018.061778000003,58113.14135049997,9881.972201500002,31837.5205355,3845.1607824999996,13226.600514000002,8260.7934995,16479.101471500002,3320.090424,27191.2808145,5632.607190500001,50019.491569000005,11687.2189445,8129.696206,28785.995698000002,9516.692286000003,26681.100099000003,5963.9587299999985,49726.30511500001,7822.664216,9562.398347500002,51885.47076150001,10083.986425000003,8141.804536499999,31481.283554999998,32112.12554050001,0.0
