Link,Num_Units,Service_Time,Service_Dist
4030,1,486.07022187901805,40.70332060137298
3270,2,365.98728680286587,40.14720699284226
2824,1,486.0971557545748,40.88392325374298
2347,1,485.98494653634145,40.13151454855688
2441,1,625.3194343265408,974.4262471605325
1760,1,486.00119058893307,40.24043756548781
2481,1,486.0085413158273,40.28972719598096
315,1,486.1277612618663,41.08914569870103
1742,1,485.96842463066105,40.020728413015604
2560,1,486.5226186626633,43.73682607954834
1100,3,492.0864090503118,81.04431638563983
2314,1,485.969505357705,40.02797512989491
1943,1,486.026000700224,40.4067995097721
1294,2,366.01869845192823,40.357834948110394
1757,1,486.004741601994,40.264248560531996
1213,1,486.02789038365245,40.41947061009705
1345,2,372.08547891001825,81.03807941451669
4343,1,552.401138564176,485.47924830694683
212,1,541.9651730026246,415.5018305942649
4024,2,403.9059731975883,294.40750914788805
419,2,365.9743384495689,40.06038298772182
3466,1,486.0230502836491,40.3870157598285
2894,1,486.00146674990987,40.24228933779523
1829,2,366.0873362876794,40.818079711752944
1609,1,486.02047242301603,40.369730149861425
3452,1,509.9899305301832,201.0947509846883
230,1,486.63663387585996,44.50134471966885
742,1,485.9843470580688,40.12749480153434
644,1,488.2331114404561,55.20637979742605
843,4,665.7081005358997,440.5996906743385
493,3,491.9799226946809,80.33028181502596
1702,1,486.03960909924245,40.4980493914336
1391,1,486.29295646682544,42.1968471177388
346,2,428.10422222221644,456.66666666662786
3993,1,486.02496014354756,40.399822151637636
2470,1,572.289276656619,618.8373490609229
2971,1,486.02146698117076,40.37639906909317
2350,1,487.8945611331582,52.93626150977798
1667,2,413.7986675914258,360.7420714668697
1302,1,486.78206528843896,45.47652182681486
1966,1,526.5221317995721,311.94992266141344
1843,1,627.3782540788268,988.2314757185522
249,1,488.6621997701567,58.0835925580468
918,1,486.01612418927266,40.340573464054614
3529,1,486.06759004740195,40.68567309388891
3985,2,366.8457458413178,45.903525981120765
120,2,404.8434623017678,300.69375705253333
465,1,603.8677283966482,830.5837845103815
1382,1,485.9817155406073,40.10984940058552
2951,2,365.9876901634784,40.14991169073619
