,3922,1143,3985,1533,420,1302,2901,3132,1100,3937,3888,2894,230,123,627,3225,4872,647,334,3993,4017,4024,2084,1829,3466,755
3922,0.0,1681.0225522180676,1811.2041155458767,3253.8725617609375,2556.6603555547217,4152.08808395474,3248.572169910886,1132.457182723299,1303.7758407380093,5327.469432123626,796.6840849014078,3043.105004226195,3798.5975300017253,2127.8793558942507,2965.777592696011,3727.5994453100475,7807.140233115799,3380.3434164224645,4412.556428952672,471.7264628499734,1809.2524953178736,907.4318400712248,3041.48961020677,4985.118111483071,2500.825613418851,883.2861175412413
1143,1684.5334128618317,0.0,872.5239681508109,3140.933452973012,2643.629213002482,5049.630285103774,3135.6330611229605,2564.4142052495126,2276.0696776609448,4769.508566739213,1445.708892698912,2930.1658954382697,5039.981634231099,3074.7343637896975,4148.747702317675,4968.983549539421,8704.682434264834,4557.4421276773755,5653.940533182045,1359.601288923015,1432.4463062272998,1303.429319686019,2483.5287448223585,4179.8129856294245,3473.1194503417864,1891.898757458323
3985,1936.0624931809061,872.5239681508109,0.0,3201.97353215406,2704.66929218353,5742.898340574257,3196.6731403040085,2814.7143353872234,2969.3377331314286,4628.397260822859,2138.9769481693966,2991.2059746193177,5101.021713412147,3135.774442970745,4278.929265645484,5030.023628720469,9397.950489735316,4618.4822068584235,5714.980612363093,1489.7828522508241,2125.714361697784,1996.6973751565035,3176.7968002928424,4240.8530648104725,4166.38750581227,2585.166812928808
1533,3552.783383783771,3140.9334529730118,3201.9735321540597,0.0,697.2122062062159,7280.155336689631,225.89307594637745,3701.3972409580124,4431.8430934729,7731.186107031899,3365.5554039593267,210.76755753474248,3720.6936355037737,1128.3173569934306,4614.673415156789,3004.955781772457,10935.207485850693,2108.3795004169683,3341.5486585678623,2518.80511896953,4394.123846519985,3448.618056688907,5445.206285115044,1891.7852923519652,5628.892866153741,4011.3533702761333
420,2855.571177577555,2643.6292130024817,2704.6692921835297,697.212206206216,0.0,6582.943130483415,691.911814356164,3004.1850347517966,3734.6308872666846,7233.88186706137,3377.1972112399444,486.4446486714734,3023.4814292975584,431.10515078721494,3917.4612089505713,2952.483344605881,10237.995279644476,1913.8129146748931,3146.982072825787,2086.481365099277,3896.8196065494553,3487.9449664097615,4947.902045144515,2552.8075621031903,4931.680659947525,3314.141164069917
1302,8428.93177086103,9489.204993671065,10182.47304914155,11682.804332621969,10985.592126415751,0.0,11677.503940771916,9308.752553338694,7742.454203414668,6282.705678692204,8077.021082642053,11472.036775087225,12227.529300862752,10556.811126755281,10847.996371728417,12156.531216171075,3655.052149161059,11809.275187283489,12800.249036328049,8900.658233711003,8065.730052741361,8597.625642813215,7059.502615132755,13414.0498823441,6278.161412050743,8626.667163247675
2901,3547.4829919337194,3135.63306112296,3196.673140304008,225.89307594637745,691.9118143561639,7274.85494483958,0.0,3696.0968491079607,4426.542701622849,7725.885715181847,3360.255012109275,205.46716568469049,3715.393243653722,1123.0169651433787,4609.373023306737,2999.6553899224054,10929.90709400064,2103.079108566916,3336.2482667178106,2513.5047271194785,4388.823454669933,3443.3176648388553,5439.905893264992,1860.6523518560243,5623.592474303689,4006.0529784260816
3132,1007.9295004818636,2565.254549152281,2819.13361602774,3784.8839025352618,3087.6716963290464,4721.516433068656,3779.58351068521,0.0,1566.9378033094436,6111.844472811644,1529.4024614547113,3574.1163450005192,3091.2022983380143,2658.890696668576,2345.873050019675,3020.204213646337,8376.568582229715,2672.9481847587535,3705.161197288962,1479.6559633318368,2562.253201544719,1640.1502166245282,3825.864650894788,5516.129452257396,3070.2539625327663,700.0169154123611
1100,1165.547378838713,2269.86403864876,2963.132094119244,4419.41994059965,3722.2077343934343,3152.136545752336,4414.119548749598,1566.170382762323,0.0,4542.464585495323,824.1551459498476,4208.652383064908,4964.144908840438,3293.4267347329637,3376.426494318123,4893.14682414876,6807.188694913395,4545.890795261176,5578.1038077913845,1637.2738416886866,994.0901336491074,1344.7597061210072,2256.4847635784686,6150.665490321784,1500.8740752164467,884.0849926713029
3937,5214.435096243837,4760.4309926469505,4628.397260822859,7722.108532939637,7224.804292969107,2254.5941762977563,7716.808141089586,6094.255878721501,4687.863251675696,0.0,4862.524408024861,7511.340975404895,9013.032626245562,7342.314452138088,8180.212688939847,8942.034541553885,5608.351914383445,8594.7785126663,9626.991525196509,5411.81047713111,3548.9305614179993,4832.637424129763,2437.56439921909,8760.988065596051,3122.409133074035,5412.170488630481
3888,520.2323099388287,1445.708892698912,2138.9769481693966,3774.104871699766,3076.892665493551,3761.032322961527,3768.8044798497144,1397.3884755710162,912.7200797447962,4940.6421522235605,0.0,3563.3373141650236,4318.829839940555,2648.11166583308,3486.00990263484,4247.831755248877,7416.084472122586,3900.5757263612936,4932.788738891501,846.7502849897963,1422.4252154178087,520.6045601711596,2654.6623303067054,5505.3504214219,2109.769852425638,715.7329917288696
2894,3342.0158262490286,2930.1658954382697,2991.2059746193177,210.76755753474248,486.4446486714735,7069.387779154889,205.46716568469049,3490.62968342327,4221.075535938158,7520.418549497157,3154.787846424584,0.0,3509.9260779690317,917.5497994586884,4403.905857622046,3438.9279932773543,10724.439928315947,2067.0226172074176,3300.191775358311,2308.0375614347877,4183.356288985243,3237.850499154164,5234.438727580302,2066.1195175407147,5418.125308618999,3800.585812741391
230,3808.763374976461,4947.6571127296265,5008.697191910675,3720.6936355037737,3023.481429297558,7536.135327882323,3715.393243653722,3091.202298338014,4687.8230846655915,8906.182112423367,4330.38940863885,3509.926077969031,0.0,2594.7004296370874,1978.3261935505366,844.5161352319991,11191.187477043382,1865.2161496360511,613.9588989509475,3651.450295247155,5342.957819055316,4441.1371638086675,6620.202290506512,5451.939185225909,5884.872857346432,3583.873582469141
123,2426.7901779170847,2848.7994811470703,2909.8395603281183,1128.3173569934308,431.10515078721494,6154.162130822946,1123.016965143379,2575.404035091326,3305.8498876062145,7439.052135205959,2502.037872413534,917.5497994586884,2594.7004296370874,0.0,3488.6802092901003,2523.70234494541,9809.214279984008,1684.6691252135893,3208.659328588035,1655.2875874237375,4101.9898746940435,2612.785627583351,5153.0723132891035,2983.9127128904047,4502.899660287056,2885.360164409447
627,3067.6026690446824,4119.58567868347,4535.788771795282,4698.160076734036,4000.94787052782,6710.490494588483,4692.859684883984,2345.8730500196743,3377.193914865244,8100.818534331471,3589.228702707072,4487.392519199294,1978.3261935505366,3572.1668708673496,0.0,2282.0359600530264,10365.54264374954,2762.2992808561066,2327.031944018239,2910.289589315376,5035.259653885835,3699.976457876889,5814.838712414616,6429.4056264561705,5059.228024052592,2492.3415016468207
3225,3737.7652902847835,4876.659028037949,4937.699107218998,3004.955781772458,2952.483344605881,7465.137243190645,2999.6553899224064,3020.204213646337,4616.824999973914,8835.184027731688,4259.391323947172,3438.927993277354,844.5161352319991,2523.70234494541,2282.035960053027,0.0,11120.189392351704,1074.3621163797245,807.5406356959136,3580.4522105554774,5271.959734363638,4370.13907911699,6549.204205814834,4749.496693168824,5813.874772654754,3512.875497777464
4872,7580.064865326711,8640.338088136745,9333.60614360723,10833.937427087647,10136.72522088143,3962.9282031057437,10828.637035237594,8459.885647804376,6893.58729788035,5433.838773157885,7228.154177107735,10623.169869552903,11378.662395328432,9707.94422122096,11868.487086113106,11307.664310636756,0.0,10960.408281749169,11992.621294279379,8051.791328176685,7216.863147207043,7748.758737278896,6210.635709598437,12565.182976809778,5429.294506516425,7777.800257713355
647,3390.5092613971997,4529.402999150364,4590.443078331414,2108.379500416968,1913.8129146748934,7117.88121430306,2103.079108566916,2672.948184758753,4269.56897108633,8487.927998844103,3912.135295059589,2067.022617207417,1865.2161496360513,1684.6691252135897,2762.2992808561066,1074.3621163797243,10772.933363464119,0.0,1418.2040877264392,3233.1961816678936,4924.703705476055,4022.8830502294063,6201.94817692725,3852.920411813333,5466.61874376717,3165.6194688898804
334,4422.7222739274075,5561.616011680573,5622.656090861622,3341.548658567862,3146.982072825787,8150.094226833268,3336.24826671781,3705.161197288962,5301.781983616537,9520.141011374311,4944.348307589797,3300.191775358311,613.9588989509475,3208.659328588035,2327.031944018239,807.5406356959136,13862.01491132832,1418.2040877264392,0.0,4265.409194198101,5956.916718006262,5055.096062759614,7234.161189457457,5086.089569964227,6498.831756297378,4197.832481420089
3993,596.5848404850027,1359.601288923015,1489.7828522508241,3076.6919955570615,2379.479789350846,4494.867583922762,3071.39160370701,1475.2366826913196,1646.5553407060297,5334.678334658633,846.7502849897963,2865.924438022319,3621.41696379785,1950.6987896903754,2788.597026492135,3550.4188791061724,8149.9197330838215,3203.162850218589,4235.375862748798,0.0,1859.318695406262,957.4980401596132,3048.6985127417765,4807.937545279196,2843.6051133868714,1226.0656175092618
4017,1667.6316027144335,1423.368732135039,2116.6367876055233,4385.046272427724,3887.7420324571945,3829.0522797825606,4379.745880577672,2547.4523851921,1141.0597581462944,3548.9305614179993,1315.7209144954586,4174.278714892982,5466.229132716158,3795.5109586086846,4633.409195410446,5395.2310480244805,7484.104428943619,5047.975019136897,6080.188031667105,1865.0069836017074,0.0,1285.8339306003604,1262.950739501145,5423.925805084137,2029.3106840995488,1865.3669951010795
4024,657.4129560440302,1688.9408812516347,1921.200176405523,3657.4801772879855,2960.26797108177,4555.695699481788,3652.179785437934,1536.0647982503472,1707.3834562650572,5183.874140776284,881.3590207029575,3446.712619753243,4202.205145528774,2531.4869714212996,3369.385208223059,4131.207060837096,8210.747848642848,3783.9510319495125,4816.16404447972,581.7225237096197,1665.657203970531,0.0,2897.8943188594276,5388.72572701012,2904.433228945899,1286.8937330682893
2084,2928.4552743269815,2474.4511707300976,3167.719226200582,5436.128711022782,4938.824471052252,2717.686117583651,5430.8283191727305,3808.2760568046483,2401.8834297588423,2437.56439921909,2576.5445861080066,5225.36115348804,6727.052804328706,5056.334630221231,5894.232867022993,6656.054719637028,6372.73826674471,6308.798690749444,7341.0117032796525,3125.830655214255,1262.950739501145,2546.6576022129084,0.0,6475.008243679197,1214.4006313610748,3126.190666713628
1829,5284.028933505903,4179.8129856294245,4240.853064810473,1891.7852923519652,2552.807562103191,9050.18735805287,1860.6523518560243,5432.642790680146,6163.088643195033,8770.065639688311,5446.265965648009,2066.1195175407147,5451.939185225907,2983.9127128904056,6345.918964878921,4749.496693168823,12705.239507213928,3852.920411813333,5086.089569964227,4219.629596760759,5433.003379176399,5303.986392635116,6484.085817771457,0.0,7360.138415875874,5742.598919998265
3466,2474.4881142513937,3534.761337061428,4228.029392531913,5728.360676012331,5031.148469806116,1713.5559088027815,5723.0602841622795,2985.052911203147,1418.0584071815301,3231.46248531874,2122.5774260324188,5517.593118477589,6273.0856442531185,4602.367470145644,4955.726286024831,6202.087559561441,5368.60805796384,5854.831530673857,6887.044543204065,2946.214577101367,2111.2863961317253,2643.181986203578,1185.07036990004,7459.606225734465,0.0,2302.9675211121266
755,752.2964989435643,1891.8987574583232,2585.1668129288078,4006.1690607045016,3308.9568544982862,4039.431042977635,4000.86866885445,700.0169154123611,884.8524132184236,5429.759082720623,856.0466697607541,3795.401503169759,3583.873582469141,2880.1758548378157,2492.3415016468207,3512.8754977774634,7694.483192138693,3165.6194688898804,4197.832481420088,1224.0229617935377,1880.167811453699,966.7944249305709,3143.7792608037676,5737.414610426635,2388.168572441746,0.0
