,18703,122523,121336,120464,118239,117388,120640,118215,17626,122119,122678,5925,120815,118180,118354,121228,118321,121793,117843,21474,114676,20230,21425,124249,122631,19315,122494,121201,118548,589,118642,122512,118581,118483,122524,7571,120517,18153,117788,6665,114480,118549,6406,122091,121202,121769,120566,121339,114616,122227,18945
18703,0.0,1885.657398,995.501904,542.378419,1217.075089,2757.240296,682.945734,1559.644254,396.135468,1514.85238,1759.065549,2705.555236,688.240219,1271.31621,717.018557,681.215562,1349.530207,1049.231701,2345.053097,1036.006759,2612.208002,524.207763,1366.796669,1129.176664,2119.585596,718.161513,2048.778298,531.891595,1486.862367,3179.390378,1596.822111,2860.199313,1584.570218,766.158626,1863.295807,1360.290512,2089.478974,771.545655,2482.185119,1470.77256,3634.0849,1442.779571,1622.326607,1297.584678,549.994954,1050.766926,1213.321659,908.687834,2995.47983,1603.833598,290.62428
122523,1859.495901,0.0,1059.301388,1441.712849,2882.79392,4466.478174,2348.664565,3225.363085,1698.505216,777.05161,722.268702,4296.709158,1980.543393,2937.035041,2495.905825,1312.704975,3015.249039,1186.725261,3678.426167,1118.32536,4356.503005,1361.338995,1349.049177,2794.895496,421.916907,2003.732166,460.31688,1795.353527,2178.772206,4923.685381,2324.898928,1294.857599,2917.943288,2121.217804,51.275575,1997.807107,1232.438473,2304.871847,3954.274514,3136.491391,5378.379903,2134.68941,2955.699677,966.913755,1765.021603,1434.914561,2806.526282,1229.536928,4727.957636,1580.711686,1646.042073
121336,1018.961148,1059.301388,0.0,603.677468,2125.038392,3680.877191,1590.909037,2467.607557,940.749688,828.74806,1101.077492,3583.091273,1190.444127,2179.279513,1605.750331,389.294089,2257.493511,1061.522602,2825.433233,1048.297659,3535.844897,471.183501,1379.087569,2037.139968,1481.218295,1258.606362,1411.730279,989.996461,1967.242503,4103.027273,2077.202246,2223.151294,2064.950354,1282.217301,1110.576963,1826.70317,1431.490918,1547.11632,3101.28158,2378.735864,4557.721795,1923.159707,2102.706743,1062.86903,951.946531,1063.057826,2048.770754,339.381434,3919.116725,1616.124499,736.336236
120464,660.940105,1518.249682,712.079526,0.0,1807.279553,3322.856148,1273.150198,2149.848718,773.563096,1540.827585,1813.157018,3271.171088,614.226976,1861.520674,1247.729288,616.14969,1939.734671,1387.751513,2465.03252,1374.526571,3177.823854,639.955976,1705.316481,1719.381128,1940.166588,1013.055537,1978.566561,870.411407,1606.84179,3745.00623,1716.801534,2813.10728,1704.549641,918.197786,1569.525257,1480.269935,2143.570443,1245.535543,2740.880868,2060.977024,4199.700752,1562.758994,1742.30603,1636.10449,888.514766,1389.286738,1747.189977,1024.436048,3561.095682,1942.35341,375.935524
118239,1237.138173,2883.175582,2130.984548,1690.972202,0.0,1926.722438,726.185055,572.760291,1354.686165,2483.45658,2727.669749,1756.953422,1523.968425,416.085026,829.252799,1816.698206,747.995937,2017.835901,1982.180272,2004.610958,2108.24307,1659.690406,2335.400869,558.594889,3088.189795,1346.974898,3017.382498,1344.758654,2044.500979,2491.472609,1960.16838,3828.803513,1688.332437,1283.546408,2831.900007,1917.929124,3058.083174,1115.1859,1978.220187,285.426222,2946.167131,2000.418183,1831.743248,2266.188878,1382.808584,2009.319228,983.343205,2011.468567,2188.2019,2572.437798,1439.218064
117388,2712.852057,4467.363911,3611.718089,3158.594604,1962.154737,0.0,2381.882313,1537.460471,2948.927997,4067.644909,4311.858078,572.096037,2724.142628,1804.325086,2029.427002,3297.431747,1807.094074,3400.651845,1507.106352,3588.799288,410.010915,3140.423947,3489.409899,1946.834949,4672.378125,2802.728286,4601.570828,3036.02061,2819.87764,670.542585,2745.590381,5412.991843,2006.100316,2483.720611,4416.088336,3026.254133,4488.400454,2400.052695,1214.225078,1790.986266,1125.237107,2863.960437,1985.105147,3850.377207,3029.012593,3163.790837,1898.922136,3524.904019,367.271876,3718.22859,2906.840465
120640,703.008818,2349.046227,1596.855193,1156.842847,726.185055,2325.919716,0.0,1001.405737,820.55681,1949.327225,2193.540393,2156.1507,1195.501029,684.070406,1093.239954,1282.56885,762.284403,1483.706546,2519.091074,1470.481603,2645.153872,1125.561051,1735.153796,541.93086,2554.06044,675.757157,2483.253143,810.629298,2108.887024,2890.669887,2141.722255,3294.674158,2129.470362,1161.688652,2297.770652,1982.315169,2523.953819,443.968158,2515.130989,978.292599,3345.364408,2064.804228,2174.005035,1732.059523,801.48299,1338.101486,530.375926,1477.339211,2587.399178,2015.399026,905.088709
118215,1592.551704,3238.589113,2486.398079,2046.385733,572.760291,1513.292725,1014.250103,0.0,1710.099696,2838.87011,3083.083279,1343.52371,2026.062797,453.982535,1331.347171,2172.111736,468.719938,2373.249432,2216.915282,2360.024489,1923.30364,2015.103937,2462.376742,596.492399,3443.603326,1635.039946,3372.796029,1700.172184,2546.595351,2078.042896,2462.262752,4184.217044,2155.900702,1785.64078,3187.313538,2420.023496,3413.496705,1259.209162,1924.034008,586.451721,2532.737418,2502.512555,2299.311513,2621.602408,1738.222114,2136.75768,777.300341,2366.882097,1774.772187,2691.195433,1794.631595
17626,387.965078,1694.322654,942.131621,674.283063,1354.686165,3021.769308,820.55681,1697.25533,0.0,1294.603652,1538.816821,2852.000292,920.832894,1408.927286,1067.870303,627.845278,1487.141283,828.982974,2553.330426,815.758031,2884.972182,470.837479,1146.547941,1266.78774,1899.336868,505.385308,1828.529571,157.257779,1695.139696,3452.154558,1805.099439,2639.950586,1792.847547,1010.114494,1643.04708,1568.567841,1869.230246,820.302369,2754.949299,1608.383636,3906.84908,1651.0569,1830.603936,1077.33595,195.307709,830.518198,1321.956803,822.615639,3268.24401,1383.584871,496.232381
122119,1481.22503,756.363951,828.851234,1432.528701,2504.523049,4088.207302,1970.393693,2847.092214,1320.234344,0.0,381.435974,3918.438286,1955.165239,2558.764169,2161.130255,1006.71653,2636.978167,808.454389,3587.662772,740.054488,3978.232133,1055.35055,855.614408,2416.624624,961.378165,1625.461295,890.570868,1417.082655,2729.472042,4545.41451,2839.431785,1701.991883,2827.179892,2044.44684,705.088377,2602.900187,711.849399,1926.600976,3848.20925,2758.22052,5000.109032,2685.389245,2864.936281,358.875959,1386.750731,1056.64369,2428.25541,825.684818,4349.686764,1087.276917,1377.184872
122678,1724.10093,722.268702,1087.132533,1690.810001,2747.398948,4331.083202,2213.269593,3089.968113,1563.110244,381.435974,0.0,4161.314186,2198.041139,2801.640069,2404.006154,1264.99783,2879.854067,1051.330289,3830.538671,982.930388,4221.108033,1313.631849,1185.131464,2659.500524,784.249762,1868.337195,856.475618,1659.958555,2901.040908,4788.290409,3047.167629,1355.411704,3070.055792,2287.322739,670.993127,2720.075808,533.053998,2169.476875,4091.08515,3001.096419,5242.984931,2856.958111,3107.812181,688.393015,1629.626631,1299.519589,2671.13131,1083.966118,4592.562664,1090.489739,1635.466172
5925,2671.296895,4301.866061,3570.162928,3117.039442,1760.469898,572.096037,2180.197474,1335.775632,2876.047067,3902.147059,4146.360228,0.0,2682.587467,1602.640247,1987.871841,3255.876585,1605.409235,3198.967006,1450.789883,3404.092126,982.106952,3098.868786,3287.725061,1745.15011,4506.880275,2601.043447,4436.072977,2834.335771,2778.322479,1149.666987,2704.03522,5247.493992,1964.545155,2442.16545,4250.590486,2984.698972,4286.715616,2198.367856,1157.908609,1589.301427,1370.242103,2822.405275,1943.549986,3769.883821,2827.327754,2962.105999,1697.237297,3483.348857,776.795375,3516.543751,2865.285304
120815,688.132055,1983.757378,1191.891413,646.955176,1524.398105,2769.842486,1183.734839,2013.648111,902.571329,1958.655928,2226.593594,2718.157427,0.0,1740.423599,694.715626,1039.315083,1850.319312,1516.759746,2050.189695,1503.534803,2624.810192,903.297912,1834.324714,1629.965769,2405.674285,1142.06377,2444.074257,999.41964,1191.998964,3191.992569,1301.958708,3278.614977,1289.706815,303.970811,2035.032953,1065.427109,2557.007019,1374.543775,2326.038042,1777.665917,3646.687091,1147.916168,1327.463204,1765.112723,1017.522999,1518.294971,1714.110764,1287.777984,3008.082021,2071.361643,639.27746
118180,1298.197302,2944.234711,2192.043677,1752.031331,416.085026,1750.318948,690.888414,453.982535,1415.745294,2544.515708,2788.728877,1580.549932,1739.993919,0.0,1045.278293,1877.757334,348.198081,2070.673436,2296.781078,2065.670087,2160.329863,1720.749535,2204.733912,142.509864,3149.248924,1207.902218,3078.441627,1405.817782,2260.526473,2315.069119,2176.193874,3889.862642,2001.759963,1499.571902,2892.959136,2133.954618,3119.142303,805.226627,2161.060231,611.96006,2769.763641,2216.443677,2145.170774,2327.248007,1434.186524,1807.681602,576.108642,2072.527695,2011.79841,2484.979143,1500.277193
118354,719.62771,2472.446581,1582.291087,1129.167602,829.682479,2075.12686,1093.027922,1318.932485,1087.548688,2166.354962,2438.684394,2023.441801,694.715626,1045.707973,0.0,1268.004745,1377.618885,1740.644921,1804.031768,1727.419979,1930.094566,1110.996945,2058.209889,1188.217837,2810.998816,1402.087127,2740.191518,1196.178444,1215.248181,2497.276943,1246.490283,3551.612533,1072.056371,454.293609,2523.722156,1088.676326,2769.097819,1295.786136,1800.071683,1082.950291,2951.971465,1171.165384,1215.467182,1988.997898,1234.228374,1742.180146,1484.780464,1495.477017,2313.366395,2295.246818,877.413463
121228,702.987474,1312.704975,389.294089,507.673575,1809.064718,3364.903517,1274.935363,2151.633883,624.776014,1006.613356,1278.942789,3267.117599,1037.867798,1863.305839,1289.776657,0.0,1941.519837,1086.546242,2672.856903,1073.321299,3219.871223,169.008951,1404.11121,1721.166294,1660.402873,942.632688,1589.595576,674.022787,1814.666173,3787.053599,1924.625916,2401.016591,1912.374024,1129.640971,1363.98055,1688.094318,1609.356214,1231.142646,2948.705251,2062.76219,4241.748121,1770.583377,1950.130413,1240.734326,635.972857,1088.081467,1732.79708,517.246731,3603.143051,1641.148139,477.04415
118321,1371.872168,3017.909577,2265.718543,1825.706197,747.995937,1753.408477,763.071913,468.719938,1489.42016,2618.190575,2862.403744,1583.639461,1864.364379,352.540853,1377.189205,1951.432201,0.0,2080.257813,2457.031033,2139.344954,2163.419392,1794.424401,2169.015867,255.269413,3222.923791,1276.438638,3152.116493,1479.492649,2592.437385,2318.158648,2508.104786,3963.537508,2333.670875,1758.891151,2966.634002,2465.86553,3168.006422,873.763047,2164.14976,906.794494,2772.85317,2548.354589,2477.081686,2400.922873,1502.722944,1843.396805,308.580403,2146.202562,2014.887939,2397.834557,1573.952059
121793,1181.844507,1318.243774,1213.517393,1409.234886,2205.142526,3310.056191,1535.616875,2238.965096,1020.853821,918.524772,1162.73794,3140.287175,1655.784717,2043.320136,1861.749732,1235.718869,1971.615516,0.0,3288.282249,400.962045,3678.851611,1078.71107,454.53273,1901.180591,1523.257987,971.872801,1452.45069,1087.866879,2430.091519,3874.806362,2540.051263,2263.871705,2527.79937,1745.066317,1266.968199,2303.519664,1493.151366,1374.108738,3548.828728,2458.839997,4329.500884,2386.008723,2565.555759,811.532397,1049.816949,248.412244,1738.744395,1042.18463,3571.535653,770.051919,1269.390777
117843,2347.70109,3711.247559,2876.797041,2410.360406,1936.793916,1511.02629,2477.626704,2253.690775,2537.504683,3593.589282,3861.526947,1445.975826,2042.850251,2255.316707,1762.137718,2695.239065,2523.324378,3151.6931,0.0,3138.468157,1365.993996,2538.231266,3469.258067,2397.826571,4133.164466,2776.997124,4151.239697,2634.352994,1557.498984,1933.176373,1483.211725,4962.660712,808.606059,1866.797955,3762.523134,1763.875477,4191.940373,2764.03212,383.271198,1825.071215,2387.870895,1601.58178,722.726491,3400.046076,2652.456352,3153.228324,2615.15244,2922.711337,1749.265825,3706.294997,2274.210813
21474,1004.887488,1139.859324,1036.560374,1232.277867,2028.185507,3564.988964,1494.056152,2370.754672,843.896802,740.140322,984.353491,3395.219948,1478.827697,2082.426628,1684.792713,1058.76185,2160.640625,255.753774,3111.32523,0.0,3501.894592,901.75405,394.644159,1940.287082,1344.873538,1074.991491,1274.06624,940.745113,2253.1345,4069.076968,2363.094243,2085.487255,2350.842351,1568.109298,1088.583749,2126.562645,1314.766916,1450.263434,3371.871709,2281.882978,4523.77149,2209.051704,2388.59874,522.87262,910.41319,504.166018,1951.917868,865.22761,3826.468426,689.396137,1092.433757
114676,2567.819763,4322.331617,3466.685795,3013.56231,2059.050907,410.010915,2599.883694,1947.471385,2803.895704,3922.612615,4166.825784,982.106952,2579.110334,2214.336,1884.394708,3152.399453,2217.104989,3456.991937,1362.074058,3443.766994,0.0,2995.391653,3774.556904,2356.845864,4527.345831,3068.733753,4456.538534,2912.525459,2674.845347,567.182377,2600.558087,5267.959549,1861.068022,2338.688317,4271.056043,2881.221839,4497.23921,2810.06361,1069.192784,1947.328206,1021.876899,2718.928143,1840.072853,3705.344913,2950.575389,3458.527161,2308.933051,3379.871725,383.271829,4011.593834,2761.808171
20230,547.777647,1361.449636,471.294142,544.20531,1653.854892,3209.69369,1119.725536,1996.424057,469.566187,1055.358017,1327.687449,3111.907772,903.841489,1708.096012,1134.56683,169.008951,1786.31001,931.336415,2536.339022,918.111472,3064.661396,0.0,1248.901383,1565.956467,1709.147534,787.422862,1638.340236,518.81296,1678.148292,3631.843772,1788.108035,2449.761251,1775.856143,993.12309,1412.725211,1551.576437,1658.100874,1075.932819,2812.187369,1907.552363,4086.538294,1634.065496,1813.612532,1116.551602,480.76303,932.87164,1577.587253,384.480072,3447.933224,1485.938312,321.834323
21425,1326.328458,1312.484759,1358.001344,1553.718837,2349.626477,3483.220835,1744.243187,2412.12974,1165.337773,912.765757,1156.978926,3313.451819,1800.268668,2216.48478,2006.233683,1380.20282,2144.78016,450.221456,3432.7662,393.785553,3823.335562,1223.195021,0.0,2074.345234,1517.498972,1202.69976,1446.691675,1261.031523,2574.57547,4047.971006,2684.535214,2258.11269,2672.283321,1889.550268,1261.209184,2448.003615,1430.961448,1547.273382,3693.312679,2603.323948,4502.665528,2530.492674,2710.03971,687.545569,1222.981593,567.035893,1911.909038,1186.668581,3744.700297,363.104475,1413.874728
124249,1155.687438,2801.724847,2049.533813,1609.521468,558.224571,1892.458494,548.37855,596.122081,1273.23543,2402.005845,2646.219014,1722.689478,1648.17965,142.139546,1187.417839,1735.247471,261.646549,1928.163572,2438.920624,1923.160224,2302.469408,1578.239672,2062.224049,0.0,3006.739061,1065.392354,2935.931763,1263.307919,2402.666019,2457.208665,2318.333419,3747.352778,2143.899508,1542.706422,2750.449272,2276.094164,2976.632439,662.716764,2303.199776,754.099606,2911.903187,2358.583223,2287.310319,2184.738143,1291.676661,1665.171739,433.598778,1930.017832,2153.937956,2342.469279,1357.767329
122631,2064.510115,421.916907,1447.319855,1863.629756,3087.808134,4671.492387,2553.678779,3430.377299,1903.519429,982.065824,784.249762,4501.723372,2402.4603,3142.049255,2744.41534,1625.185152,3220.263252,1391.739474,4100.343074,1323.339573,4561.517219,1673.819171,1554.063391,2999.909709,0.0,2208.74638,289.451538,2000.36774,2600.689113,5128.699595,2746.815834,872.940692,3339.860195,2543.134711,370.641332,2419.724013,1294.419533,2509.886061,4376.191421,3341.505605,5583.394117,2556.606317,3377.616584,1171.927969,1970.035816,1639.928775,3011.540495,1444.15344,4932.971849,1785.725899,1995.653494
19315,709.735209,2029.900794,1258.589086,897.237203,1346.974898,2763.850897,675.757157,1622.19558,505.385308,1630.181791,1874.39496,2594.081881,1143.787033,1243.614362,1389.640434,944.302743,1315.482946,1004.217399,2776.284566,1151.33617,3145.554799,787.294944,1213.427774,1101.474817,2234.915007,0.0,2164.10771,382.759692,1918.093836,3328.601068,2028.053579,2975.528725,2015.801687,1233.068634,1978.625219,1791.521981,2204.808386,558.106927,3015.531916,1599.082442,3783.29559,1874.01104,2053.558076,1412.91409,344.709762,723.460557,1059.761361,1143.327757,3025.330359,1493.673004,757.393093
122494,1994.481113,460.31688,1377.290853,1902.029728,3017.779131,4601.463385,2483.649776,3360.348297,1833.490427,912.036821,857.253913,4431.694369,2440.860272,3072.020252,2674.386337,1555.156149,3150.23425,1321.710472,4100.918855,1253.310571,4491.488216,1603.790169,1484.034388,2929.880707,289.451538,2138.717378,0.0,1930.338738,2639.089085,5058.670593,2785.215807,1040.29159,3340.435975,2557.702922,409.041305,2458.123986,1367.423684,2439.857059,4361.465333,3271.476603,5513.365115,2595.006289,3378.192364,1101.898966,1900.006814,1569.899773,2941.511493,1374.124437,4862.942847,1715.696897,1925.624491
121201,535.780919,1783.703221,989.979184,771.131374,1344.758654,2955.79565,804.511392,1687.327819,157.257779,1383.984219,1628.197388,2786.026634,1017.681205,1398.999774,1209.439926,675.692842,1477.213772,918.36354,2650.178737,905.138597,2993.879965,518.685043,1235.928508,1256.860229,1988.717434,382.759692,1917.910137,0.0,1791.988007,3520.545821,1901.947751,2729.331152,1889.695858,1106.962805,1732.427646,1665.416152,1958.610813,750.05168,2863.857082,1598.456125,3975.240343,1747.905211,1927.452247,1166.716517,38.049931,919.898765,1251.706114,874.717856,3217.275112,1472.965437,631.287265
118548,1510.488851,2177.905846,2020.147401,1573.148167,2044.930659,2820.318942,2095.781948,2534.180665,1700.292443,2756.377043,2900.174548,2768.633883,1205.638012,2260.956153,1215.248181,1858.026826,2592.867065,2314.48086,1557.498984,2301.255918,2675.286648,1701.019026,2632.045828,2403.466017,2599.822753,1939.784884,2638.222725,1797.140754,0.0,3242.469024,146.126722,3472.763445,1026.608833,1029.585716,2229.181421,206.376493,3354.728133,2172.26489,1833.347331,2298.198471,3697.163546,44.082797,883.198022,2562.833837,1815.244113,2316.016085,2561.403212,2085.499098,3058.558476,2869.082757,1436.998574
589,2888.079714,4642.591569,3786.945746,3333.822261,2132.786565,292.987648,2552.514141,1708.092299,3124.155655,4242.872567,4487.085735,750.862251,2899.370286,1974.956914,2204.65466,3472.659404,1977.725902,3571.283673,1682.334009,3764.026945,320.259952,3315.651604,3660.041727,2117.466777,4847.605782,2973.360114,4776.798485,3206.652438,2995.105298,0.0,2920.818038,5588.2195,2181.327973,2658.948268,4591.315994,3201.48179,4659.032282,2570.684523,1389.452735,1961.618094,902.496792,3039.188094,2160.332804,4025.604865,3199.644421,3334.422665,2069.553964,3700.131676,84.140451,3888.860418,3082.068122
118642,1608.826547,2324.032568,2137.922497,1671.485863,1960.59806,2746.031683,2128.617178,2449.848066,1798.630139,2854.714739,3046.301269,2694.346623,1303.975708,2176.623554,1246.490283,1956.364522,2508.534466,2412.818556,1483.211725,2399.593614,2600.999389,1799.356722,2730.383524,2319.133417,2745.949475,2038.12258,2784.349447,1895.478451,146.126722,3168.181765,0.0,3618.890166,952.321574,1127.923412,2375.308143,352.503215,3453.065829,2270.602586,1759.060072,2213.865871,3622.876287,190.209518,808.910763,2661.171533,1913.581809,2414.353781,2594.238443,2183.836794,2984.271217,2967.420454,1535.33627
122512,2808.697145,1294.857599,2191.506885,2736.570447,3831.995164,5415.679418,3297.865809,4174.564329,2647.706459,1726.252854,1355.411704,5245.910402,3275.400991,3886.236285,3488.60237,2369.372182,3964.450282,2135.926504,4915.134887,2067.526604,5305.704249,2418.006201,2298.250421,3744.096739,872.940692,2952.93341,1040.29159,2744.55477,3473.629805,5872.886625,3619.756526,0.0,4154.652008,3371.918955,1243.582024,3292.664705,1733.441853,3254.073091,5175.681366,4085.692635,6327.581147,3429.547008,4192.408397,1916.114999,2714.222847,2384.115805,3755.727525,2188.34047,5677.158879,2445.901443,2739.840524
118581,1596.574655,2960.121123,2125.670605,1659.23397,1769.290849,1989.104547,2116.365286,2236.859114,1786.378247,2842.462846,3110.400511,1937.419487,1291.723815,2002.189643,1072.056371,1944.112629,2334.100554,2400.566664,808.606059,2387.341721,1844.072253,1787.10483,2718.131632,2144.699506,3382.03803,2025.870688,3400.113261,1883.226558,1026.608833,2411.254629,952.321574,4211.534276,0.0,1115.67152,3011.396698,1232.985325,3440.813937,2258.350693,1084.454406,1744.246094,2865.949151,1070.691629,143.410812,2648.919641,1901.329917,2402.101888,2523.568378,2171.584901,2227.344081,2955.168561,1523.084377
118483,768.767779,2211.633205,1495.862223,950.925987,1283.976088,2529.420469,1148.583575,1773.226094,1136.688757,2173.137113,2445.466545,2477.73541,303.970811,1500.001582,454.293609,1274.786896,1756.612274,1789.78499,1884.359051,1776.560047,2384.388175,1117.779097,2107.349958,1536.258732,2633.550112,1446.034581,2671.950084,1245.318513,1096.514549,2951.570552,1129.34978,3506.490804,1117.097887,0.0,2262.90878,969.942694,2775.879971,1351.341789,2160.207398,1537.2439,3406.265073,1052.431753,1161.63256,2038.137967,1283.368443,1791.320215,1642.962806,1502.259168,2767.660003,2344.386887,884.195614
122524,1808.220326,51.275575,1110.576963,1492.988424,2831.518345,4415.202599,2297.38899,3174.08751,1647.229641,725.776035,670.993127,4245.433583,2031.818968,2885.759466,2488.125551,1363.98055,2963.973464,1135.449686,3729.701742,1067.049785,4305.22743,1412.61457,1297.773602,2743.619921,370.641332,1952.456591,409.041305,1744.077952,2230.047781,4872.409806,2376.174503,1243.582024,2969.218863,2172.493379,0.0,2049.082682,1181.162898,2253.596272,4005.550089,3085.215816,5327.104328,2185.964985,3006.975252,915.63818,1713.746028,1383.638986,2755.250707,1187.863651,4676.682061,1529.436111,1697.317648
7571,1383.916996,1996.940747,1839.182301,1446.576312,1918.358804,3026.695434,1969.210093,2407.60881,1573.720588,2629.805188,2719.209448,2975.010375,1079.066157,2134.384298,1088.676326,1731.454971,2466.29521,2187.909005,1763.875477,2174.684063,2881.66314,1574.447171,2505.473973,2276.894162,2418.857654,1813.213029,2457.257626,1670.568899,206.376493,3448.845517,352.503215,3291.798345,1232.985325,903.013861,2048.216322,0.0,3228.156278,2045.693035,2039.723824,2171.626616,3903.540039,162.293697,1089.574514,2436.261982,1688.672258,2189.44423,2434.831357,1958.927243,3264.934969,2742.510902,1310.426719
120517,2054.514355,1232.438473,1417.545958,2021.223426,3077.812374,4453.13226,2543.683019,3382.041165,1893.523669,711.849399,533.053998,4283.363244,2528.454564,3132.053495,2734.41958,1595.411255,3114.691585,1381.743714,4160.952097,1313.343813,4551.521458,1644.045275,1428.385346,2989.913949,1294.419533,2198.75062,1366.645389,1990.37198,3302.761367,5017.882431,3412.72111,1733.441853,3400.469218,2617.736165,1181.162898,3176.189512,0.0,2499.890301,4421.498575,3331.509845,5472.576953,3258.678571,3438.225607,1000.858737,1960.040056,1629.933015,2881.820463,1414.379543,4714.611722,1107.469294,1965.879597
18153,779.170471,2346.701392,1594.510358,1162.006378,1101.59246,2205.74397,486.605101,1134.652875,867.173294,1946.982389,2191.195558,2035.974954,1406.282975,685.507435,1355.907203,1280.224015,757.376019,1423.269924,2865.617559,1468.136768,2615.754885,1123.216216,1557.3304,543.36789,2551.715605,560.498706,2480.908308,793.79103,2182.863011,2770.494141,2292.822754,3292.329323,2280.570862,1412.695691,2295.425817,2056.291156,2521.608984,0.0,2616.485253,1297.467495,3225.188663,2138.780215,2318.327251,1729.714687,786.783013,1160.278091,501.654435,1474.994376,2467.223432,1837.575631,981.250362
117788,2431.455794,3987.095907,3152.645388,2686.208753,1922.686938,1198.756982,2463.519726,1943.593554,2667.531735,3786.248647,4030.461815,1133.706517,2318.698598,2210.458169,1748.03074,2971.087412,2213.227158,3320.627968,383.271198,3307.403025,1053.724688,2814.079613,3638.192936,2352.968033,4390.981862,2932.369785,4320.174565,2776.16149,1833.347331,1620.907064,1759.060072,5131.59558,1084.454406,2142.646303,4038.371482,2039.723824,4360.875241,2749.925142,0.0,1810.964238,2075.601586,1877.430128,998.574838,3568.980945,2814.21142,3322.163192,2305.05522,3198.559684,1436.996516,3875.229865,2550.05916
6665,1490.835644,3136.873053,2384.682019,1944.669673,285.426222,1755.553967,979.025459,586.451721,1608.383636,2737.154051,2981.36722,1585.784951,1777.236237,614.627013,1082.520611,2070.395677,946.537925,2271.533372,1825.505418,2258.308429,1951.568216,1913.387877,2589.09834,757.136877,3341.887266,1599.815302,3271.079969,1598.456125,2297.768791,2320.304138,2213.436191,4082.500984,1663.287682,1536.81422,3085.597478,2171.196936,3311.780645,1368.026304,1821.545333,0.0,2774.99866,2253.685995,1806.698493,2519.886349,1636.506055,2262.159632,1181.885193,2265.166038,2017.033429,2826.135269,1692.915535
114480,3609.9858,5364.497655,4508.851832,4055.728347,2935.786635,1095.987718,3355.514211,2511.092369,3846.061741,4964.778653,5208.991821,1370.242103,3621.276372,2777.956984,2926.560746,4194.56549,2780.725973,4374.283744,2404.240095,4485.933031,1042.166038,4037.557691,4463.041798,2920.466848,5569.511868,3776.360185,5498.704571,3954.691497,3717.011384,826.590498,3642.724124,6310.125586,2903.234059,3380.854355,5313.22208,3923.387876,5462.032353,3373.684594,2111.358822,2764.618164,0.0,3761.09418,2882.238891,4747.510951,3992.741427,4137.422736,2872.554035,4422.037762,910.730948,4691.860488,3803.974209
118549,1466.406055,2133.82305,1976.064604,1529.06537,2000.847863,2864.401738,2051.699152,2490.097869,1656.209647,2712.294246,2856.091751,2812.716679,1161.555215,2216.873357,1171.165384,1813.944029,2548.784269,2270.398064,1601.58178,2257.173122,2719.369444,1656.93623,2587.963032,2359.383221,2555.739957,1895.702088,2594.139929,1753.057958,44.082797,3286.551821,190.209518,3428.680649,1070.691629,985.50292,2185.098625,162.293697,3310.645337,2128.182093,1877.430128,2254.115675,3741.246343,0.0,927.280818,2518.751041,1771.161317,2271.933289,2517.320416,2041.416302,3102.641273,2824.999961,1392.915778
6406,1624.9746,2988.521069,2154.07055,1687.633916,1912.70166,1985.546449,2152.178522,2380.269925,1814.778192,2870.862792,3138.800457,1933.861389,1320.123761,2145.600454,1215.467182,1972.512575,2477.511366,2428.966609,722.726491,2415.741667,1840.514155,1815.504775,2746.531577,2288.110317,3410.437976,2054.270633,3428.513206,1911.626503,883.198022,2407.696531,808.910763,4239.934221,143.410812,1144.071465,3039.796644,1089.574514,3469.213882,2286.750638,998.574838,1887.656905,2862.391053,927.280818,0.0,2677.319586,1929.729862,2430.501834,2617.799786,2199.984847,2223.785983,2983.568506,1551.484323
122091,1208.827832,939.306346,1062.972204,1436.21821,2232.12585,3850.867229,1697.996495,2574.695015,1047.837146,358.875959,688.393015,3683.148446,1682.768041,2286.366971,1888.733056,1240.8375,2364.580969,573.164548,3315.265573,467.65729,3705.834935,1105.694394,496.73845,2144.227426,1144.320559,1353.064097,1073.513262,1144.685457,2457.074843,4273.017311,2567.034587,1884.934277,2554.782694,1772.049641,888.030771,2330.502988,1000.858737,1654.203777,3575.812052,2485.823321,4727.711833,2412.992047,2592.539083,0.0,1114.353533,821.353849,2155.858212,879.758357,4089.106763,728.400958,1296.374101
121202,553.241075,1745.653291,951.929254,740.743069,1382.808584,2941.481157,790.196899,1725.377749,195.307709,1345.934289,1590.147458,2771.712141,987.2929,1421.244622,1233.1463,637.642912,1493.113206,880.31361,2619.790432,867.088667,3031.929895,480.635113,1197.878578,1279.105076,1950.667504,344.709762,1879.860207,38.049931,1761.599702,3506.231328,1871.559446,2691.281222,1859.307553,1076.5745,1694.377716,1635.027847,1920.560883,735.737187,2895.63878,1636.506055,3960.92585,1717.516906,1897.063942,1128.666587,0.0,881.848835,1237.391621,836.667926,3202.960619,1434.915507,600.89896
121769,1028.317813,1431.698345,1059.990699,1255.708192,1967.852981,3189.255252,1296.63524,2118.164157,867.327127,1031.979342,1276.192511,3019.486236,1502.258023,1828.736848,1708.223038,1082.192175,1850.814577,297.612566,3134.755555,514.416616,3525.324917,925.184376,567.987301,1686.597303,1636.712558,723.460557,1565.905261,863.31661,2276.564825,3754.005423,2386.524569,2377.326276,2374.272676,1591.539623,1380.42277,2149.99297,1606.605937,1159.52545,3395.302034,2219.960525,4208.699945,2232.482029,2412.029065,892.484161,825.26668,0.0,1617.943455,888.657936,3450.734714,883.50649,1115.864083
120566,1233.384743,2819.557234,2067.3662,1634.86222,987.441082,1875.66932,530.375926,777.300341,1340.029136,2419.838232,2664.0514,1705.900304,1725.876955,576.277187,1485.841543,1753.079858,308.580403,1836.84458,2579.291876,1940.99261,2285.680234,1596.072058,1925.602634,434.137642,3024.571447,1033.354548,2953.76415,1266.646872,2562.464291,2440.41949,2595.299522,3765.185165,2524.199777,1644.023885,2768.281659,2435.892436,2924.593189,630.678958,2286.410602,1146.239638,2895.114012,2518.381495,2627.582303,2202.57053,1259.638855,1599.983572,0.0,1947.850219,2137.148781,2154.421324,1435.464634
121339,932.257719,1229.536928,339.381434,928.685381,1997.962479,3594.173761,1463.833124,2340.531644,813.673775,825.684818,1098.01425,3456.01536,1288.321561,2052.2036,1519.046902,517.246731,2130.417597,890.189838,2920.819093,876.964895,3449.141467,384.480072,1207.754806,1910.064055,1479.474335,1134.594246,1408.667038,875.133878,2062.628363,4016.323844,2172.588107,2220.088053,2160.336214,1377.603161,1223.184547,1936.056508,1428.427676,1420.040406,3196.667441,2251.65995,4471.018366,2018.545567,2198.092603,879.758357,837.083948,891.725063,1921.69484,0.0,3832.413296,1444.791735,706.314394
114616,2951.091591,4705.603446,3849.957623,3396.834138,2186.155519,346.356602,2605.883095,1761.461253,3187.167532,4305.884444,4550.097612,776.795375,2962.382163,2028.325868,2267.666537,3535.671281,2031.094856,3624.652627,1745.345886,3827.038822,383.271829,3378.663482,3713.410681,2170.835731,4910.617659,3026.729068,4839.810362,3260.021392,3058.117175,510.814147,2983.829915,5651.231377,2244.33985,2721.960146,4654.327871,3264.493667,4712.401236,2624.053477,1452.464613,2014.987048,965.508669,3102.199971,2223.344682,4088.616742,3253.013375,3387.791619,2122.922918,3763.143553,0.0,3942.229372,3145.08
122227,1572.714328,1556.603391,1604.387214,1800.104707,2596.012347,3726.100228,2023.300849,2655.009133,1411.723642,1099.23907,1091.29059,3556.331212,2046.654537,2495.542442,2252.619553,1626.588689,2387.659553,771.469134,3679.15207,689.396137,4069.721431,1469.58089,363.104475,2353.402897,1761.617605,1481.757423,1690.810308,1508.571953,2820.96134,4290.850399,2930.921083,2446.702294,2918.66919,2135.936138,1505.327816,2694.389485,1107.469294,1826.331044,3939.698548,2849.709818,4745.544921,2776.878543,2956.425579,750.055189,1478.240029,881.440729,2154.788432,1433.05445,3987.57969,0.0,1660.260597
18945,301.353022,1625.470088,735.314595,282.315162,1447.69247,2963.269065,913.563115,1790.261635,448.822553,1319.378469,1591.707902,2911.584005,647.164288,1501.933591,888.142205,421.028252,1580.147588,1063.01097,2279.661821,1049.786028,2818.236771,264.020453,1380.575938,1359.794045,1973.167986,688.314994,1902.360689,545.670864,1421.471091,3385.419147,1531.430834,2713.781704,1519.178942,736.445889,1676.745663,1294.899236,1922.121327,920.794999,2555.510168,1701.389941,3840.113669,1377.388295,1556.935331,1311.363947,563.774223,1064.546195,1422.449433,648.500524,3201.508599,1617.612867,0.0
