Link,Num_Units,Service_Time,Service_Dist
114620,2,438.80787385820014,528.439029000001
115178,3,689.1780815658228,1402.6245969992597
18235,1,524.5810164101355,298.9339500009082
115538,12,1798.2423626754367,1597.5124900006922
121934,1,546.016959297141,442.6707150009461
121277,2,527.690540275088,1124.433662997908
114341,2,558.0992706137475,1328.3366380000953
118547,2,536.0839068466896,1180.7146189988125
117425,2,588.0916229224599,1529.447628000402
121334,3,556.678328302371,514.159555000253
118615,3,600.7532995201933,809.7002649990609
19316,1,578.7730551622869,662.3137360010296
121123,4,810.8017687939603,1413.5120840006275
115455,3,619.8920071558694,938.0331280009123
121533,3,601.629882287482,815.5781110023381
118717,3,713.3692604001806,1564.8363460003166
117904,4,762.2177020283278,1087.7360439986223
18911,2,399.28136729938035,263.3976349980803
114496,4,838.0800162776413,1596.4238909989363
117363,1,539.8341546664138,401.2124809996458
122032,6,1055.1225180385684,1442.4844750015764
121526,2,416.7378743486604,380.4506549977232
118058,4,837.6633790543137,1593.6301679994212
21598,4,708.7893565841512,729.477134001907
19350,2,457.78370433037776,655.6797339989571
