Link,Num_Units,Service_Time,Service_Dist
122523,12,1868.4945872445192,2068.582391000353
121336,6,1113.94772157761,1836.9315260009607
120464,4,825.3648077619455,1511.1632170000812
118239,10,1673.4836244013636,2370.2522870006505
117388,2,643.5306343738729,1901.188875998254
120640,10,1850.837889545777,3559.4851780002937
118215,9,1477.8514097618202,1863.107352001476
17626,6,871.1205282284732,208.67587100004312
122119,7,1259.1472927364432,2005.9049580002902
122678,4,793.2235573120194,1295.642985999235
5925,2,547.999623195008,1260.6143709991593
120815,1,525.9539371310611,308.1399450004101
118180,6,1063.6681713672124,1499.786575998296
118354,13,2120.979855038446,2956.9503020012053
121228,13,1928.6321744953937,1667.1804279977223
118321,2,551.3860990832218,1283.3220769996988
121793,3,610.4393687384629,874.6493209999753
117843,6,984.2829297481585,967.4760600010632
21474,1,603.9357554903597,831.0399339988362
114676,13,2143.1930859288796,3105.8991009983
20230,8,1352.1412003130165,1824.8180620005587
21425,2,469.8816226879952,736.8012249977328
124249,4,801.8292882585954,1353.3479319977341
122631,1,704.3514642106547,1504.3683340008138
19315,3,695.9199212954298,1447.831390000647
122494,1,596.3209330731543,779.9794350010343
121201,4,824.5730605355657,1505.854227998876
118548,2,435.14033264044906,503.84666500077583
589,1,801.0411493742843,2152.7122220001183
118642,2,476.7920871791739,783.1387159980368
122512,4,992.2297620104018,2630.060988000012
118581,2,620.8996863854434,1749.4391130002914
118483,8,1247.0125398763375,1119.8873930018162
122524,7,1182.628584972375,1492.8157239989378
7571,1,576.013171623659,643.8075879995013
120517,1,588.2418572464277,725.8059269988444
18153,2,431.4004007603828,478.7688920007786
117788,3,589.480666536653,734.1126499999082
6665,1,724.5636930838621,1639.8995960026514
114480,2,513.2709483355792,1027.7444009985193
118549,1,696.4836530502354,1451.6114419997903
6406,1,560.6425816210123,540.7414950000821
122091,9,1568.487141494766,2470.857005999773
121202,4,771.1316523533952,1147.5077270008624
121769,8,1359.8120105153823,1876.2539819985395
120566,3,660.5171864375711,1210.441571999807
121339,3,807.7615631177667,2197.775345000671
114616,8,1403.5438951312976,2169.4941559988656
122227,2,522.5075835241662,1089.6798179984326
18945,9,1489.8545905728054,1943.593588999589
