,18703,114620,115178,18235,115538,121934,121277,114341,118547,117425,121334,118615,19316,121123,115455,121533,118717,117904,18911,114496,117363,122032,121526,118058,21598,19350
18703,0.0,2900.132233,2828.970903,518.698562,1094.567092,965.25297,776.960607,4134.093907,1530.945164,2635.099185,1086.481388,1326.363831,680.564878,973.917267,3981.11075,976.542243,800.075007,1097.772539,269.512914,2512.775086,3095.053016,1448.592811,1059.211434,1548.424265,992.156631,881.999074
114620,2854.325182,0.0,360.815701,3041.162593,2330.269554,3659.518625,3471.226262,1384.667704,2917.26797,1062.816475,3844.170699,2498.687547,3167.661769,3357.441313,6675.376405,3734.231554,2908.833428,1755.670705,3027.202225,1046.782929,841.206174,4143.847033,3771.861482,2084.922487,3686.422286,3200.912657
115178,2784.582664,362.234513,0.0,2971.420075,2476.444418,3589.776107,3401.483744,1596.196186,2847.525452,1208.991339,3774.42818,2428.945029,3170.468489,3503.616177,6605.633887,3664.489036,2839.09091,1685.928186,2957.459706,1192.957793,987.381038,4074.104515,3702.118964,2231.097351,3616.679768,3347.087521
18235,502.258707,3043.484323,3046.571105,0.0,943.909346,994.544479,649.199699,4172.109541,1824.107307,2440.692462,1282.651341,1619.525974,241.459098,745.823878,4010.402259,1193.331702,1093.23715,1315.372741,634.815435,2281.272696,2872.384606,1478.872887,1276.000892,1471.771115,1021.44814,446.296332
115538,1114.615476,2299.946595,2446.121459,943.393108,0.0,1811.334473,1510.024516,3428.571813,2464.157662,1697.154734,2099.441335,2189.230101,985.519883,1287.069061,4827.192253,2002.61333,1834.588765,1359.570295,1295.584001,1537.734968,2128.846878,2295.662881,2085.282521,896.301588,1838.238134,1022.853793
121934,732.784119,3517.715454,3446.554124,799.34211,1633.574141,0.0,338.235696,4751.677128,2025.113927,3171.940655,855.436489,1820.532595,848.512557,732.575047,3329.045661,1047.067563,1294.243771,1715.35576,835.822056,3012.520889,3603.632799,797.516289,1242.864234,2087.431315,340.091542,907.380415
121277,757.796994,3542.728329,3471.566999,683.43057,1525.332099,507.321605,0.0,4727.331567,2050.126803,2995.914488,858.121805,1845.54547,539.29598,446.54834,3523.179384,1049.752879,1319.256646,1740.368636,860.834931,2836.494722,3427.606632,991.650012,1267.87711,2053.193869,534.225265,607.607473
114341,4109.994807,1383.274931,1616.485325,4201.277276,3406.011836,4915.18825,4657.765241,0.0,4172.937594,2138.558757,5099.840323,3754.357172,4243.404051,4433.183595,7931.046029,4989.901178,4164.503052,3011.340329,4282.871849,2122.525211,1955.952151,5399.516657,5027.531106,3160.664769,4942.09191,4276.654939
118547,1554.571647,2919.128083,2847.966753,1837.529731,2464.172362,2274.584926,2086.292562,4153.089757,0.0,2654.095035,2089.72023,418.580423,1946.271045,2239.623435,4637.757678,1781.619639,905.425505,1648.61861,1496.573037,2700.478915,3114.048866,2669.486871,1586.227405,2394.974201,2301.488586,2147.705241
117425,2611.567456,1091.495297,1237.670161,2495.991628,1700.726187,3407.592208,2952.479593,2220.120516,2674.510243,0.0,3601.412972,2255.929821,2538.118402,2727.897946,6338.445524,3491.473827,2666.075701,1512.912978,2784.444498,482.780011,616.137313,3806.916152,3529.103755,1455.37912,3349.882434,2571.369291
121334,1109.940632,3914.748612,3843.587282,1259.277849,2093.50988,1068.523355,858.121805,5148.710286,2077.2411,3631.876393,0.0,1966.661201,1321.07802,1252.461156,3214.945045,308.100591,1440.372377,2112.388918,862.885942,3472.456627,4063.568537,788.754576,573.9265,2547.367053,1095.427015,1396.57523
118615,1324.899329,2500.547661,2429.386331,1607.857412,2176.410869,2044.912607,1856.620244,3734.509334,418.580423,2235.514613,2013.912513,0.0,1716.598727,2009.951116,5056.3381,1821.722469,878.928749,1270.060757,1266.900719,2281.898492,2695.468443,2439.814552,1771.30846,2016.416348,2071.816268,1918.032923
19316,640.470051,3085.611097,3231.785961,241.459098,986.03612,1052.074555,544.752951,4214.236316,1892.911474,2482.819236,1321.060743,1688.330142,0.0,711.41164,4067.932335,1251.515295,1162.041318,1516.091171,703.619603,2323.39947,2914.51138,1536.402963,1344.80506,1513.89789,1078.978216,370.814082
121123,982.551758,3334.817193,3480.992057,786.229915,1287.083761,904.94795,449.835334,4463.442412,2234.993182,2732.025332,1255.748151,2030.411849,747.571354,0.0,3863.317823,1447.379224,1504.123025,1965.1234,1045.70131,2572.605566,3163.717476,1331.788451,1665.503455,2036.212282,873.369001,414.096934
115455,3929.608582,6714.539917,6643.378587,3996.166573,4830.398604,3196.824463,3535.060159,7948.50159,4638.624037,6324.627474,3214.945045,5017.357058,4045.33702,3869.043674,0.0,3420.800456,4232.500479,4912.180223,3839.640594,6165.207708,6756.319618,2683.793734,3417.185702,5284.255777,3224.4889,4043.849042
121533,989.068007,3793.875987,3722.714657,1188.045069,2012.899459,1260.154428,1049.752879,5027.837661,1769.140509,3528.842939,308.100591,1774.471157,1249.84524,1444.092229,3420.800456,0.0,1228.668326,1991.516294,719.555093,3401.223848,3988.79677,980.385649,265.825909,2466.756632,1287.058089,1442.190628
118717,800.617402,2934.147698,2862.986368,1083.575486,1758.19838,1520.630681,1332.338318,4168.109371,905.425505,2669.11465,1489.630587,843.005458,1192.3168,1485.66919,4232.500479,1229.70073,0.0,1140.863424,742.618792,2715.498529,3129.06848,1915.532626,1034.308495,1887.219015,1547.534341,1393.750997
117904,1098.654478,1802.359694,1731.198364,1285.491889,1359.719592,1903.847921,1715.555558,3036.321368,1623.064654,1537.326646,2088.499994,1282.46501,1484.540303,1901.71472,4919.705701,1978.56085,1159.697767,0.0,1271.531521,1583.710526,1997.280477,2388.176329,2016.190778,842.098581,1930.751582,1666.502184
18911,269.512914,3074.320894,3003.159564,555.109663,1293.344366,992.164858,803.872495,4308.282568,1456.10423,2809.287846,839.426698,1251.522898,663.850978,957.203367,3847.825759,707.02933,725.234074,1271.961201,0.0,2711.55236,3269.241677,1201.53812,789.69852,1747.201539,1019.068519,865.285174
114496,2589.300105,1006.561702,1152.736565,2356.752563,1561.487122,3268.353143,2813.240528,2135.18692,2716.290665,483.221742,3556.835613,2297.710242,2398.879337,2588.658881,6199.206459,3467.515974,2707.856123,1554.6934,2770.26863,0.0,812.440657,3667.677087,3550.185165,1316.140055,3210.643369,2432.130226
117363,3060.794675,841.206174,987.381038,2915.449312,2120.183872,3827.049893,3371.937277,1961.566604,3123.737463,616.137313,4050.640191,2705.15704,2957.576086,3147.355631,6757.903209,3940.701047,3115.302921,1962.140197,3233.671717,812.439109,0.0,4226.373837,3978.330975,1874.836805,3769.340119,2990.826975
122032,1370.853839,4155.785174,4084.623844,1437.41183,2271.643861,638.069721,976.305416,5389.746848,2628.130723,3765.872731,770.379804,2423.549391,1486.582278,1310.288932,2699.690686,962.010877,1897.260567,2353.42548,1206.622592,3606.452966,4197.564876,0.0,1227.836785,2725.501035,665.734158,1485.0943
121526,1025.839856,3817.947748,3746.786418,1231.617339,2049.671307,1458.773265,1270.480901,5051.909421,1573.748274,3552.9147,573.9265,1734.352765,1340.358653,1633.711042,3417.185702,265.825909,1033.276091,2015.588054,756.326942,3444.796117,4012.868531,1246.211557,0.0,2503.52848,1485.676925,1541.792849
118058,1569.22021,2042.420045,2188.594909,1471.771115,914.89145,2265.939207,1993.275125,3171.045264,2373.132316,1439.628184,2554.046069,2032.532672,1513.89789,2089.899304,5281.796987,2457.218064,1909.765429,842.083773,1750.188735,1280.208419,1871.320329,2750.267615,2539.887255,0.0,2292.842868,1695.859771
21598,965.855547,3750.786882,3679.625552,1032.413539,1866.64557,233.071429,553.854227,4984.748556,2258.185355,3317.917867,1088.507917,2053.604023,1010.554947,862.334068,3248.608857,1280.138991,1527.315199,1948.427189,1068.893484,3158.498101,3749.610011,717.079485,1475.935663,2320.502743,0.0,1037.139435
19350,948.636084,3225.682525,3371.857389,540.78487,1126.107548,1070.85673,610.11113,4354.307744,2201.077507,2622.890664,1421.656931,1996.496175,445.877396,403.550917,4029.226603,1518.923997,1470.207351,1797.738097,1011.785635,2463.470898,3054.582808,1497.697231,1639.409372,1795.544816,1039.277781,0.0
